LOT;Entité;Type;Priorité;Region;Localisation;# Intersection;ID_MAP;Latitude;Longitude;Visite site;Couleur Fut (Antenne);Couleur de l'antenne;Couleur Fut (Coffret);Couleur du Coffret;Type de fét;Type de fét (Antenne);Type de fét (Coffret);Problématique;Longueur STP (m);Longeur STP (m);Longueur STP Requise (m);FO24 longueur;Plan de positionnement; état Plan SL;Transmis é Rosemont;Planifié pour cette semaine;Coffret Installé;Coffret alimenté;AP et Antenne installé;AP alimenté;Commutateur installé;Boitié de terminaison fusionnés;Cable STP crimpé;Commutateur configuré;Patch cord connecté;Site testé;Facture recu et traité - Coffret;Facture recu et traité - Antenne;Commentaires;Score;Probabilite;;;;;;;;;;;;
4;Antenne;Root reutilisé;3;VM;Saint Jacques / Places d'Armes;1391;4HA01;45.504722;-73.557919;Terminé;Noir;Noir;Noir;Noir;;;;;N/A;8;N/A;;Approuvé;Fini Signé;Terminé;Oui;Installé;oui;oui;oui;;;oui;;;;;;Ancien RAP,meme place,changer la source d'alimentation de AP et faire place pr boite de terminaison, et installer nouvelle switch;1;Bon;;;;;;;;;;;;
4;Antenne;Root reutilisé;3;VM;Notre-Dames / Places d'Armes;1462;4HA02; 45.504857;-73.556598;Terminé;Noir;Noir;Noir;Noir;;;;;N/A;5;N/A;;Approuvé;Fini Signé;Terminé;oui;Installé;oui;oui;oui;;;oui;;;;;;Ancien RAP,meme place,changer la source d'alimentation de AP et faire place pr boite de terminaison, et installer nouvelle switch;1;Bon;;;;;;;;;;;;
4;Antenne;VM;1;VM;Le Royer / St-Laurent;6857;4HA04;45.505777;-73.554668;Terminé;Noir;Noir;Noir;Noir;large;;;;8;;10;;Approuvé;Fini Signé;Terminé;oui;;;;;;;;;;;;;Attente révision plan, Revision Envoyée.;1;Bon;;;;;;;;;;;;
4;Antenne;VM;3;VM;Saint-Suplice / Commune;5186;4HA05; 45.503927;-73.553814;Terminé;Noir;Noir;Noir;Noir;;;;;8;;10;;Approuvé;Fini Signé;Terminé;;Installé;oui;oui;;oui;;;;;;;;;1;Bon;;;;;;;;;;;;
4;Antenne;VM;1;VM;Place Royale/ Commune;6746-(5115);4HA06;45.503205;-73.553983;Terminé;Noir;Noir;Noir;Noir;mince;;;;49;;80;;Approuvé;Fini Signé;Terminé;oui;Installé;;;;oui;;;;;;;;;1;Bon;;;;;;;;;;;;
4;Antenne;VM;3;VM;Saint-Paul / St-Pierre;2038;4HA07; 45.501224;-73.556254;Terminé;Noir;Noir;Noir;Noir;;;;;8;;10;;Approuvé;Fini Signé;Terminé;oui;Installé;oui;;;oui;;;;;;;;Point d'alimentation changé (accepté?);1;Bon;;;;;;;;;;;;
4;Antenne;VM;3;VM;Saint-Antoine / Saint-Piere;436;4HA08;45.503163;-73.560534;Terminé;Grise;Grise;Grise;Noir;large;QIM;;;14;;30;;Approuvé;Fini Signé;Terminé;;Installé;;;;oui;;;;;;;;Coffret noir et Antenne sur QIM;3;Faible;;;;;;;;;;;;
4;Antenne;Root reutilisé;3;VM;Saint-Laurent / Commune;2027;4HA11;45.505339;-73.553378;Terminé;Noir;Noir;Noir;Noir;;;;;N/A;;N/A;;Approuvé;Fini Signé;Terminé;oui;Installé;oui;oui;oui;;;oui;;;;;;Ancien RAP,meme place,changer la source d'alimentation de AP et faire place pr boite de terminaison, et installer nouvelle switch;1;Bon;;;;;;;;;;;;
4;Antenne;VM;3;VM;King / Wellington;4493;4VA01;45.498229;-73.555214;Terminé;Noir;Noir;Noir;Noir;;;;;9;;10;;Approuvé;Fini Signé;Terminé;;Installé;oui;oui;;oui;;;oui;;;;;;1;Bon;;;;;;;;;;;;
4;Antenne;VM;1;VM;Mcgill / Saint-Maurice;393;4VA02;45.500559;-73.558521;Terminé;Grise;Grise;Grise;noir;large;Rond;;;9;;10;;Approuvé;Fini Signé;Terminé;oui;Installé;;;;oui;;;;;;;;;2;Moyen;;;;;;;;;;;;
4;Antenne;VM;1;VM;St-Jacques / McGill;392;4VA03;45.501236;-73.560540;Terminé;Grise;Grise;Grise;noir;large;QIM;;;8;;10;;Approuvé;Fini Signé;Terminé;oui;Installé;;;;oui;;;;;;;;;2;Moyen;;;;;;;;;;;;
4;Antenne;VM;1;VM;Saint-Antoine / Sqaure-Victoria;1573;4VA04;45.501404;-73.562104;Terminé;Grise;Grise;Grise;Grise;large;QIM;QIM;;9;;10;;Approuvé;Fini Signé;Terminé;;;;;;;;;;;;;;Attente cabinet QIM;3;Faible;;;;;;;;;;;;
4;Antenne;VM;1;VM;Viger / Sqaure-Victoria;377;4VA05;45.502083;-73.563237;Terminé;Grise;Grise;Noir;Noir;;QIM;;;68;68;80;;Approuvé;Fini Signé;Terminé;;Installé;oui;;;oui;;;oui;;;;;Fét QIM oval?;3;Faible;;;;;;;;;;;;
4;Antenne;VM;3;VM;Viger / Jean-Paul-Riopelle;437;4VA06;45.503521;-73.561857;Terminé;Grise;Grise;Grise;Noir;large;QIM;;;37;;40;;Approuvé;Fini Signé;Terminé;oui;;;;;;;;;;;;;Coffret noir et antenne sur QIM, Attente retour groupe WiFi (fét noir et coffret gris??);2;Moyen;;;;;;;;;;;;
4;Antenne;VM;3;VM;Viger / Jeanne-Mance;447;4VA07;45.504752;-73.561030;Terminé;Grise;Grise;Grise;Noir;;QIM;;;83;83;80;;Approuvé;Fini Signé;Terminé;;Installé;oui;;;oui;;;oui;;;;;Fét QIM oval?;3;Faible;;;;;;;;;;;;
4;Antenne;VM;3;VM;Saint-Antoine / Saint-André;2437;4VA08;45.514213;-73.552578;Terminé;Noir;Noir;Noir;Noir;;;;;50;50;80;;Approuvé;Fini Signé;Terminé;oui;Installé;oui;;;oui;;;;;;;;;1;Bon;;;;;;;;;;;;
4;Antenne;VM;0;VM;Parc Champs de Mars;2750;4VA09;45.509323;-73.554428;Terminé;Noir;Noir;Noir;Noir;mince;;;;8;;10;;Approuvé;Fini Signé;Terminé;;;;;;;;;;;;;;Antenne Directionnelle é installer ici, Attente révision de plan;2;Moyen;;;;;;;;;;;;
4;Antenne;VM;3;VM;Viger / Saint-Urbain;467;4VA10;45.506447;-73.559559;Terminé;Noir;Noir;Noir;Noir;large;;;;8;;10;;Approuvé;Fini Signé;Terminé;oui;;;;;;;;;;;;;;2;Moyen;;;;;;;;;;;;
4;Antenne;VM;0;VM;Saint-Laurent / Saint-Antoine;460;4VA11;45.506918;-73.557117;Terminé;Ancien Gris;Noir;Ancien Gris;Noir;;;;;8;8;10;;Approuvé;Fini Signé;Terminé;;Installé;oui;oui;;oui;;;oui;;;;;;1;Bon;;;;;;;;;;;;
4;Antenne;VM;0;VM;Notre-Dame / Saint-Vincent;3965-5118;4VA12;45.507542;-73.554497;Terminé;Noir;Noir;Noir;Noir;;;;Probléme;8;;10;;Approuvé;Fini Signé;Terminé;;Installé;;;;oui;;;;;;;;Attente révision plan + (PA4819 point chaud);3;Faible;;;;;;;;;;;;
4;Antenne;Root reutilisé;0;VM;Notre-Dame / Jacques Cartier;452;4VA13;45.508415;-73.554033;Terminé;Noir;Noir;Noir;Noir;;;;;N/A;;N/A;;Approuvé;Fini Signé;Terminé;oui;Installé;oui;oui;oui;;;oui;;;;;;Ancien RAP,meme place,changer la source d'alimentation de AP et faire place pr boite de terminaison. et installer nouvelle switch;1;Bon;;;;;;;;;;;;
4;Antenne;VM;0;VM;Le royer / Jacques Cartier;8932;4VA14;45.507928;-73.553385;Terminé;Noir;Noir;Noir;Noir;mince;;;Probléme;8;;10;;Approuvé;Fini Signé;Terminé;;Installé;;;;oui;;;;;;;;Conduite bloquée;3;Faible;;;;;;;;;;;;
4;Antenne;VM;0;VM;Notre-Dame / Gosford;138;4VA15;45.509191;-73.553383;Terminé;Noir;Noir;Noir;Noir;;;;;8;;10;8;Approuvé;Fini Signé;Terminé;oui;Installé;oui;;;oui;;;oui;;;;;2 antenne sur le méme fét;1;Bon;;;;;;;;;;;;
4;Antenne;VM;0;VM;Saint-Antoine / Gosford;4902;4VA16;45.509889;-73.554910;Terminé;Noir;Noir;Noir;Noir;;;;;9;;10;;Approuvé;Fini Signé;Terminé;;Installé;oui;oui;;oui;;;oui;;;;;Point d'alimentation changé;1;Bon;;;;;;;;;;;;
4;Antenne;Root reutilisé;0;VM;Saint-Antoine / Hotel de ville;1574;4VA17;45.508826;-73.555707;Terminé;Noir;Noir;Noir;Noir;;;;;N/A;5;N/A;;Approuvé;Fini Signé;Terminé;Oui;Installé;oui;oui;oui;;;oui;;;;;;Ancien RAP,meme place,changer la source d'alimentation de AP et faire place pr boite de terminaison, et installer nouvelle switch, Nom intersection erronée dans la cartouche du SL;1;Bon;;;;;;;;;;;;
4;Antenne;VM;3;VM;Berri / Notre Dame  ;5355;4VA18;45.511263;-73.551753;Terminé;Noir;Noir;Noir;Noir;;;;;8;;10;;Approuvé;Fini Signé;Terminé;oui;Installé;oui;;;oui;;;;;;;;;1;Bon;;;;;;;;;;;;
4;Antenne;VM;3;VM;Bonsecours / Notre-Dame;438;4VA19;45.510040;-73.552445;Terminé;Noir;Noir;Noir;Noir;large;;;;8;;10;;Approuvé;Fini Signé;Terminé;oui;;;;;;;;;;;;;;2;Moyen;;;;;;;;;;;;
4;Antenne;VM;2;VM;Berri / Commune;4375;4VA20;45.511126;-73.550169;Terminé;Noir;Noir;Noir;Noir;large;;;;8;;10;;Approuvé;Fini Signé;Terminé;oui;Installé;;;;oui;;;;;;;;;2;Moyen;;;;;;;;;;;;
4;Antenne;VM;3;VM;Saint-Hubert / Commune;6561;4VA21;45.511874;-73.549692;Terminé;Noir;Noir;Noir;Noir;large;;;;8;;10;;Approuvé;Fini Signé;Terminé;;Installé;oui;oui;;oui;;;;;;;;;1;Bon;;;;;;;;;;;;
4;Antenne;VM;2;VM;Bonsecours / commune;2313;4VA22;45.509544;-73.550954;Terminé;Noir;Noir;Noir;Noir;;;;;8;;10;;Approuvé;Fini Signé;Terminé;oui;Installé;oui;;;oui;;;oui;;;;;;1;Bon;;;;;;;;;;;;
4;Antenne;VM;2;VM;Commune / Marché Bonsecours;4799;4VA23;45.508841;-73.551319;Terminé;Noir;Noir;Noir;Noir;;;;;8;;10;;Approuvé;Fini Signé;Terminé;;Installé;oui;oui;;oui;;;oui;;;;;;1;Bon;;;;;;;;;;;;
4;Antenne;VM;1;VM;Saint-Paul / Bonsecours;2841 (4368);4VA24;45.508938;-73.551911;Terminé;Noir;Noir;Noir;Noir;mince;;;;22;;30;;Approuvé;Fini Signé;Terminé;oui;;;;;;;;;;;;;;2;Moyen;;;;;;;;;;;;
4;Antenne;VM;0;VM;Saint Paul /Jacques Cartier;4201;4VA25;45.507657;-73.552665;Terminé;Noir;Noir;Noir;Noir;mince;;;Probléme;8;;10;;Approuvé;Fini Signé;Terminé;;;;;;;;;;;;;;Restriction P.A.;3;Faible;;;;;;;;;;;;
4;Antenne;Root reutilisé;0;VM;Commune / Jacques Cartier;2490;4VA26;45.506970;-73.552106;Terminé;Noir;Noir;Noir;Noir;;;;;N/A;9;N/A;;Approuvé;Fini Signé;Terminé;oui;Installé;oui;oui;oui;;;oui;;;;;;Ancien RAP,meme place,changer la source d'alimentation de AP et faire place pr boite de terminaison, et installer nouvelle switch;1;Bon;;;;;;;;;;;;
4;Antenne;VM;3;VM;Saint Paul / Jean-Baptiste;5132;4VA27;45.506267;-73.553215;Terminé;Noir;Noir;Noir;Noir;;;;;65;;80;;Approuvé;Fini Signé;Terminé;oui;Installé;oui;;;oui;;;oui;;;;;Potence de 1m?;1;Bon;;;;;;;;;;;;
4;Antenne;VM;3;VM;Saint-André / du Glacis;9606;4VA28;45.513006;-73.551123;Terminé;Noir;Noir;Noir;Noir;mince;;;;9;;10;;Approuvé;Fini Signé;Terminé;oui;;;;;;;;;;;;;;2;Moyen;;;;;;;;;;;;
4;Antenne;VM;3;VM;Calliere / Commune ;4691;4VA29;45.501632;-73.553904;Terminé;Noir;Noir;Noir;Noir;mince;;;;8;;10;;Approuvé;Fini Signé;Terminé;oui;Installé;;;;oui;;;;;;;;;2;Moyen;;;;;;;;;;;;
4;Antenne;Root reutilisé;2;VM;McGill / Place d'youville ;4081;4VA30;45.499895;-73.556050;Terminé;Grise;Grise;Noir;Noir;;;;;N/A;31;N/A;;Approuvé;Fini Signé;Terminé;Oui;Installé;oui;oui;oui;;;oui;;;;;;Ancien RAP,meme place,changer la source d'alimentation de AP et faire place pr boite de terminaison, et installer nouvelle switch;1;Bon;;;;;;;;;;;;
4;Antenne;VM;3;VM;Commune / Place dYouville ;8147;4VA31;45.500157;-73.553199;Terminé;Noir;Noir;Noir;Noir;;;;;9;;10;;Approuvé;Fini Signé;Terminé;;Installé;oui;oui;;oui;;;;;;;;;1;Bon;;;;;;;;;;;;
4;Antenne;VM;3;VM;McGill / Wellington;395;4VA32;45.499303;-73.554805;Terminé;Grise;Grise;Grise;Grise;large;Rond;Rond;;9;;10;;Approuvé;Fini Signé;Terminé;oui;;;;;;;;;;;;;;2;Moyen;;;;;;;;;;;;
4;Antenne;VM;2;VM;McGill / Commune;2869;4VA33;45.498631;-73.552734;Terminé;Noir;Noir;Noir;Noir;mince;;;;9;;10;;Approuvé;Fini Signé;Terminé;oui;Installé;;;;;oui;;;;;;;;2;Moyen;;;;;;;;;;;;
4;Antenne;VM;3;VM;Queen / Commune;2821 (2811);4VA34;45.496687;-73.553086;Terminé;Ancien Gris;Noir;Ancien Gris;Noir;;;;;8;;10;;Approuvé;Fini Signé;Terminé;;Installé;oui;oui;;oui;;;oui;;;;;;1;Bon;;;;;;;;;;;;
4;Antenne;VM;3;VM;Rue Saint-Denis / Rue St-Antoine;456;4VA35;45.511004;-73.554632;Terminé;Ancien Gris;Noir;Noir;Noir;;;;;17;17;30;;Approuvé;Fini Signé;Terminé;oui;Installé;oui ;;;oui;;;;;;;;LB contréleur plein;1;Bon;;;;;;;;;;;;
4;Antenne;VM;3;VM;Saint-Antoine / Saint-Urbain;461;4VA36;45.505658;-73.558411;Terminé;Grise;Grise;Noir;Grise;large;QIM;QIM;;8;;10;;Approuvé;Fini Signé;Terminé;;;;;;;;;;;;;;Attente cabinet QIM, Fét QIM oval?;3;Faible;;;;;;;;;;;;
4;Antenne;VM;3;VM;Saint-Antoine / Saint-Franéois-Xavier;1589;4VA37;45.504684;-73.559240;Terminé;Grise;Grise;Noir;Noir;mince;QIM;;;38;;40;;Approuvé;Fini Signé;Terminé;;Installé;;;;oui;;;;;;;;Coffret noir et Antenne sur QIM;3;Faible;;;;;;;;;;;;
4;Antenne;VM;0;VM;Notre-Dames / Saint-Laurent;454;4VA38;45.506085;-73.555617;Terminé;Noir;Noir;Noir;Noir;;;;;9;;10;;Approuvé;Fini Signé;Terminé;;Installé;oui;oui;;oui;;;oui;;;;;;1;Bon;;;;;;;;;;;;
5;Antenne;VDM;2;Centre;Rue City Councillors / Av. du Président-Kennedy;315;5CA07;45.506150;-73.570935;Terminé;Noir;Noir;Noir;Noir;;;;;8;8;10;54;Approuvé;Fini Signé;Terminé;;Installé;oui;oui;oui;oui;oui;oui;;;;;;;1;Bon;;;;;;;;;;;;
5;Antenne;VDM;3;Centre;Rue Peel / Av. du Docteur Penfield ;2;5CA15;45.503456;-73.579494;Terminé;Noir;Noir;Ancien Gris;Noir;;;;Probléme;8;8;10;;Approuvé;Fini Signé;Terminé;;;;;;;;;;;;;;Zone chantier inaccessible;3;Faible;;;;;;;;;;;;
5;Antenne;VDM;2;Centre;Av. des Pins / Rue McTavish;2392;5CA16;45.505239;-73.581127;Terminé;Ancien Gris;Noir;Ancien Gris;Noir;;;;;9;9;10;;Approuvé;Fini Signé;Terminé;oui;;;;;;;;;;;;;;2;Moyen;;;;;;;;;;;;
5;Antenne;VDM;2;Centre;Av. du Docteur-Penfield / Rue McTavish;1384;5CA17;45.503954;-73.578547;Terminé;Noir;Noir;Noir;Noir;;;;probléme;47;;80;;Approuvé;Fini Signé;Terminé;;probléme;probléme;;;;;;;;;;;Zone chantier inaccessible;3;Faible;;;;;;;;;;;;
5;Antenne;VDM;3;Centre;Rue Peel / Av. des Pins;279;5CA18;45.504626;-73.581981;Terminé;Noir;Noir;Noir;Noir;;;;;9;9;10;;Approuvé;Fini Signé;Terminé;;Installé;oui ;oui;oui;oui;;;;;;;;;1;Bon;;;;;;;;;;;;
5;Antenne;VDM;2;Centre;Rue Sherbrooke O / Rue McTavish;347;5CA19;45.502674;-73.575599;Terminé;Noir;Noir;Noir;Noir;;;;Probléme;32;32;40;;Approuvé;Fini Signé;Terminé;;;;;;;;;;;;;;Alimenté dans auxiliére du contréleur, Chantier inaccessible;3;Faible;;;;;;;;;;;;
5;Antenne;VDM;x;Centre;Rue Saint-Urbain / Rue de la Gauchetiére O;1396;5CA20;45.506892;-73.560961;Terminé;Noir;Noir;Noir;Noir;;;;;23;23;30;;Approuvé;Fini Signé;Terminé;oui;Installé;oui ;oui ;oui;;oui;oui;;;;;;Alimenté dans auxiliére du contréleur, switch pas installé;1;Bon;;;;;;;;;;;;
5;Antenne;VDM;3;Centre;Rue Amherst / Rue Sainte-Catherine E;474;5CA21;45.517409;-73.557227;Terminé;Noir;Noir;Noir;Noir;;;;;14;14;30;30;Approuvé;Fini Signé;Terminé;;Installé;oui ;oui;oui;oui;oui;oui;oui;;;;;;1;Bon;;;;;;;;;;;;
5;Antenne;VDM;3;Centre;Alexandre-De-Séve / Rue Sainte-Catherine E;614;5CA22;45.521131;-73.553804;Terminé;Noir;Noir;Noir;Noir;;;;;9;9;10;27;Approuvé;Fini Signé;Terminé;oui;Installé;;oui;;oui;oui;oui;;;;;;;1;Bon;;;;;;;;;;;;
5;Antenne;VDM;3;Centre;Av. Papineau / Rue Sainte-Catherine E;633;5CA23;45.522733;-73.552346;Terminé;Noir;Noir;Noir;Noir;;;;;12;12;30;31;Approuvé;Fini Signé;Terminé;;Installé;oui ;oui;oui;oui;oui;oui;oui;;;;;;1;Bon;;;;;;;;;;;;
5;Antenne;VDM;3;Centre;Av. Papineau / Rue Logan;2451;5CA24;45.523941;-73.555100;Terminé;Noir;Noir;Noir;Noir;;;;;9;9;10;;Approuvé;Fini Signé;Terminé;;Installé;oui ;oui;oui;oui;oui;oui;oui;;;;;Manque PA#9816 sur le plan;1;Bon;;;;;;;;;;;;
5;Antenne;VDM;3;Centre;Av. Papineau / Rue Ontario E;642;5CA25;45.525776;-73.559572;Terminé;Noir;Noir;Noir;Noir;;;;;9;9;10;;Approuvé;Fini Signé;Terminé;oui;Installé;;oui;;oui;oui;oui;;;;;;;1;Bon;;;;;;;;;;;;
5;Antenne;VDM;3;Centre;Rue Panet / Rue Ontario E;1508;5CA26;45.522970;-73.561184;Terminé;Noir;Noir;Noir;Noir;;;;;9;9;10;;Approuvé;Fini Signé;Terminé;;Installé;oui ;oui ;oui;oui ;oui;oui;oui;;;;;;1;Bon;;;;;;;;;;;;
5;Antenne;VDM;3;Centre;Rue Amherst / Rue Ontario E;472;5CA27;45.520318;-73.562939;Terminé;Noir;Noir;Noir;Noir;;;;;35;35;40;;Approuvé;Fini Signé;Terminé;oui;Installé;oui ;oui;;oui;oui;oui;;;;;;AP pas alimenté;1;Bon;;;;;;;;;;;;
5;Antenne;VDM;x;Centre;Rue Sanguinet / Av. Viger E;468;5CA29;45.510499;-73.556619;Terminé;Noir;Noir;Noir;Noir;;;;;8;;10;;Approuvé;Fini Signé;Terminé;oui;Installé;oui;;;oui;oui;;;;;;;;1;Bon;;;;;;;;;;;;
5;Antenne;VDM;x;Centre;Av Viger E / Rue Berri;434;5CA31;45.512366;-73.554930;Terminé;Noir;Noir;Noir;Noir;;;;;39;39;40;54;Approuvé;Fini Signé;Terminé;oui;Installé;;oui;;oui;oui;oui;;;;;;;1;Bon;;;;;;;;;;;;
5;Antenne;VDM;x;Centre;Rue Saint-Denis / Rue de la Gauchetiére E;448;5CA32;45.512232;-73.557020;Terminé;Noir;Noir;Noir;Noir;;;;;33;33;40;;Approuvé;Fini Signé;Terminé;oui;Installé;oui ;;;oui;oui;;;;;;;pas de cable stp et AP pas alimenté;1;Bon;;;;;;;;;;;;
5;Antenne;VDM;3;Centre;Rue Beaudry / Rue Sainte-Catherine E;1860;5CA33;45.518934;-73.555844;Terminé;Noir;Noir;Noir;Noir;;;;;9;9;10;33;Approuvé;Fini Signé;Terminé;;Installé;oui ;oui;oui;oui;oui;oui;oui;;;;;;1;Bon;;;;;;;;;;;;
5;Antenne;VDM;2;Centre;Céte du Beaver Hall / Rue de la Gauchetiére O;376;5CA34;45.502157;-73.564468;Terminé;Noir;Noir;Noir;Noir;;;;;9;9;10;35;Approuvé;Fini Signé;Terminé;;Installé;oui;oui;oui;oui;oui;oui;;;;;;;1;Bon;;;;;;;;;;;;
5;Antenne;PJM;4;Centre;Av. du Parc / Av. des Pins;2232;5JA01; 45.511797;-73.578123;;;Noir;;Noir;large;;;;8;8;10;;Approuvé;Fini Signé;Terminé;oui;;;;;;;;;;;;;;2;Moyen;;;;;;;;;;;;
5;Antenne;PJM;4;Centre;Av. du Parc / Bretelle Parc;1602;5JA02; 45.511945;-73.579497;;;Noir;;Noir;large;;;;5;5;10;;Approuvé;Fini Signé;Terminé;oui;Installé;;;;oui;;;;;;;;;2;Moyen;;;;;;;;;;;;
5;Antenne;PJM;4;Centre;Av. du Parc / Av. Duluth;1615;5JA03; 45.513363;-73.582317;;;Noir;;Noir;large;;;;60;60;80;;Approuvé;Fini Signé;Terminé;oui;Installé;;;;oui;;;;;;;;;2;Moyen;;;;;;;;;;;;
5;Antenne;PJM;4;Centre;Av. du Parc / Rachel (face au monument);1557;5JA04; 45.5146;-73.584840;;;Noir;;Noir;large;;;;64;64;80;;;Fini Signé;Terminé;oui;Installé;;;;oui;;;;;;;;;2;Moyen;;;;;;;;;;;;
5;Antenne;PJM;4;Centre;Av. du Parc / ch. De la Cote Ste Catherine;524;5JA05; 45.516145;-73.58826;;;Noir;;Noir;large;;;;5;5;10;;Approuvé;Fini Signé;Terminé;oui;Installé;;;;oui;;;;;;;;;2;Moyen;;;;;;;;;;;;
5;Antenne;PJM;4;Centre;Av. du Parc / Av du Mont Royal O.;538;5JA06; 45.516774;-73.588946;;;Noir;;Noir;large;;;;7;7;10;;Approuvé;Fini Signé;Terminé;oui;Installé;;;;oui;;;;;;;;;2;Moyen;;;;;;;;;;;;
5;Antenne;VDM;2;Centre;Boul. Robert-Bourassa / Rue Sherbrooke O ;374;5PA01;45.504987;-73.573254;Terminé;Noir;Noir;Noir;Noir;;;;;27;27;30;43;Approuvé;Fini Signé;Terminé;;Installé;oui;oui;oui;oui;oui;;;;;;;;1;Bon;;;;;;;;;;;;
5;Antenne;VDM;2;Centre;Place Phillips / Rue Sainte-Catherine;290;5PA02;45.504019;-73.568880;Terminé;Noir;Noir;Noir;Noir;;;;;9;9;10;31;Approuvé;Fini Signé;Terminé;;Installé;oui ;oui;oui;oui;oui;oui;;;;;;;1;Bon;;;;;;;;;;;;
5;Antenne;VDM;2;Centre;Boul. Robert-Bourassa / Boul. René-Lévesque O;428;5PA03;45.501988;-73.567072;Terminé;Noir;Noir;Noir;Noir;;;;;49;49;80;;Approuvé;Fini Signé;Terminé;oui;Installé;oui ;oui;;oui;;oui;;;;;;;1;Bon;;;;;;;;;;;;
5;Antenne;VDM;3;Centre;Rue Mansfield / Boul. René-Lévesque O;419;5PA04;45.500085;-73.569245;Terminé;Noir;Noir;Noir;Noir;;;;;42;42;80;;Approuvé;Fini Signé;Terminé;oui;Installé;oui;;;oui;;;;;;;;;1;Bon;;;;;;;;;;;;
5;Antenne;VDM;3;Centre;Rue Peel / Boul. René-Lévesque O;421;5PA05;45.498453;-73.570288;Terminé;Noir;Noir;Noir;Noir;;;;;15;15;30;30;Approuvé;Fini Signé;Terminé;;Installé;oui ;oui ;oui;oui;oui;;;;;;;;1;Bon;;;;;;;;;;;;
5;Antenne;VDM;3;Centre;Rue de la Montagne / Boul. René-Lévesque O;420;5PA06;45.496451;-73.572195;Terminé;Ancien Gris;Noir;Noir;Noir;;;;;14;14;30;;Approuvé;Fini Signé;Terminé;;Installé;oui ;oui;oui;oui;oui;oui;;;;;;;1;Bon;;;;;;;;;;;;
5;Antenne;VDM;3;Centre;Rue Guy / Boul. René-Lévesque O;416;5PA07;45.493714;-73.575119;Terminé;Ancien Gris;Noir;Noir;Noir;;;;;32;32;40;64;Approuvé;Fini Signé;Terminé;oui;Installé;;oui;;oui;oui;;;;;;;;1;Bon;;;;;;;;;;;;
5;Antenne;VDM;3;Centre;Rue Guy / Rue Sainte-Catherine;317;5PA08;45.495099;-73.577653;Terminé;Noir;Noir;Noir;Noir;;;;;22;22;30;;Approuvé;Fini Signé;Terminé;;Installé;oui ;oui;oui;oui;;;;;;;;;1;Bon;;;;;;;;;;;;
5;Antenne;VDM;3;Centre;Rue Crescent / Rue Sainte-Catherine;305;5PA09;45.497069;-73.575613;Terminé;Noir;Noir;Noir;Noir;;;;;15;15;30;;Approuvé;Fini Signé;Terminé;;Installé;oui ;oui;oui;oui;oui;;oui;;;;;Refaire passe éthernet (cherry temporaire);1;Bon;;;;;;;;;;;;
5;Antenne;VDM;3;Centre;Rue Peel / Rue Sainte-Catherine;356;5PA10;45.500112;-73.572982;Terminé;Noir;Noir;Noir;Noir;;;;;35;35;40;33;Approuvé;Fini Signé;Terminé;oui;Installé;oui ;oui;;oui;oui;;;;;;;;1;Bon;;;;;;;;;;;;
5;Antenne;VDM;3;Centre;Av. McGill College / Rue Sainte-Catherine;344;5PA11;45.502080;-73.571011;Terminé;Noir;Noir;Noir;Noir;;;;;8;8;10;;Approuvé;Fini Signé;Terminé;;Installé;oui ;oui;oui;oui;oui;oui;oui;;;;;;1;Bon;;;;;;;;;;;;
5;Antenne;VDM;2;Centre;Boul. Robert-Bourassa / Boul. de Maisonneuve O;341;5PA12;45.503943;-73.571633;Terminé;Noir;Noir;Ancien Gris;Noir;;;;;12;12;30;31;Approuvé;Fini Signé;Terminé;;Installé;oui ;oui ;oui;oui;oui;;;;;;;;1;Bon;;;;;;;;;;;;
5;Antenne;VDM;3;Centre;Rue Peel / Boul. de Maisonneuve O;334;5PA13;45.500809;-73.574847;Terminé;Noir;Noir;Noir;Noir;;;;;37;37;40;54;Approuvé;Fini Signé;Terminé;;Installé;oui ;oui;oui;oui;oui;;;;;;;;1;Bon;;;;;;;;;;;;
5;Antenne;VDM;3;Centre;Rue Crescent / Boul. de Maisonneuve O;304;5PA14;45.498064;-73.577659;Terminé;Noir;Noir;Noir;Noir;;;;;8;8;10;;Approuvé;Fini Signé;Terminé;;Installé;oui ;oui;oui;oui;oui;oui;oui;;;;;Alimentation dans Relais d'éclairage coin Nord/Est;1;Bon;;;;;;;;;;;;
5;Antenne;VDM;3;Centre;Rue Guy / Boul. de Maisonneuve O;316;5PA15;45.495866;-73.579387;Terminé;Noir;Noir;Noir;Noir;;;;;58;58;80;56;Approuvé;Fini Signé;Terminé;oui;;;;;;;;;;;;;;2;Moyen;;;;;;;;;;;;
5;Antenne;VDM;3;Centre;Rue Guy / Rue Sherbrooke O;303;5PA16;45.496618;-73.581893;Terminé;Noir;Noir;Noir;Noir;;;;;8;8;10;68;Approuvé;Fini Signé;Terminé;;Installé;oui ;oui;oui;oui;oui;;;;;;;;1;Bon;;;;;;;;;;;;
5;Antenne;VDM;3;Centre;Musée / Rue Sherbrooke O;4427;5PA17;45.498833;-73.579364;Terminé;Noir;Noir;Grise;Grise;;;Rond;;49;49;80;70;Approuvé;Fini Signé;Terminé;oui;Installé;oui ;oui;;oui;oui;;;;;;;;1;Bon;;;;;;;;;;;;
5;Antenne;VDM;3;Centre;Rue Peel / Rue Sherbrooke O;357;5PA18;45.501878;-73.576788;Terminé;Noir;Noir;Ancien Gris;Noir;;;;;37;;40;;Approuvé;Fini Signé;Terminé;oui;;;;;;;;;;;;;Zone chantier inaccessible, (chantier accessible de nouveau), il faut changer le PSL trop de pancartes. (Revison envoyée);2;Moyen;;;;;;;;;;;;
5;Antenne;VDM;3;Centre;Rue Drummond / Rue Sainte-Catherine;307;5PA19;45.498670;-73.574132;Terminé;Noir;Noir;Noir;Noir;;;;;7;7;10;;Approuvé;Fini Signé;Terminé;;Installé;oui ;oui;oui;oui;oui;oui;oui;;;;;;1;Bon;;;;;;;;;;;;
5;Antenne;VDM;2;Centre;Céte du Beaver Hall / Boul. René-Lévesque O;410;5PA20;45.503069;-73.566141;Terminé;Noir;Noir;Ancien Gris;Noir;;;;;45;45;80;62;Approuvé;Fini Signé;Terminé;;Installé;oui ;oui;oui;oui;oui;oui;;;;;;;1;Bon;;;;;;;;;;;;
5;Antenne;VDM;3;Centre;Rue Drummond / Rue Sherbrooke O;308;5PA21;45.500450;-73.577794;Terminé;Noir;Noir;Noir;Noir;;;;;21;21;30;61;Approuvé;Fini Signé;Terminé;oui;Installé;;oui ;;oui;oui;;;;;;;;1;Bon;;;;;;;;;;;;
5;Antenne;QDS;1;QDS;Rue St-Urbain / Rue de Montigny;4032;5SA01;45.509529;-73.566348;Terminé;Grise;Grise;Grise;Grise;large;Rond;Rond;;8;8;10;;Approuvé;Fini Signé;Terminé;;Installé;;;;oui;;;;;;;;Attente de braquette spécial QDS tubulaire, pas besoin de braquette pour l'AP si on change PSL (a verifier avec chheng);1;Bon;;;;;;;;;;;;
5;Antenne;QDS;1;QDS;Rue St-Urbain / Boul. de Maisonneuve O;353;5SA02;45.509678;-73.567208;Terminé;Grise;Grise;Grise;Grise;large;Rond;Rond;;8;8;10;;Approuvé;Fini Signé;Terminé;;;;;;;;;;;;;;Attente de braquette spécial QDS tubulaire, pas besoin de braquette pour l'AP si on change PSL (a verifier avec chheng);1;Bon;;;;;;;;;;;;
5;Antenne;QDS;1;QDS;Rue Jeanne-Mance / Boul. de Maisonneuve O;323;5SA03;45.508287;-73.568395;Terminé;Grise;Grise;Grise;Grise;large;Rond;Rond;;84;84;84;;Approuvé;Fini Signé;Terminé;oui;;;;;;;;;;;;;Attente de révison de plan, Attente de braquette spécial QDS tubulaire (Revision envoyée), pas besoin de braquette pour l'AP.;2;Moyen;;;;;;;;;;;;
5;Antenne;QDS;1;QDS;Boul. St-Laurent / Rue Saint Norbert;4413;5SA04;45.511898;-73.567976;Terminé;Noir;Noir;Noir;Noir;;;;;9;9;10;;Approuvé;Fini Signé;Terminé;;Installé;oui ;oui;oui;oui;oui;oui;oui;;;;;;1;Bon;;;;;;;;;;;;
5;Antenne;QDS;1;QDS;Boul. St-Laurent / Rue Ontario O;354;5SA05;45.511321;-73.566650;Terminé;Ancien Gris;Noir;Ancien Gris;Noir;;;;;9;9;10;56;Approuvé;Fini Signé;Terminé;;Installé;oui ;oui;oui;oui;oui;oui;oui;;;;;Alimenté dans auxiliére du contréleur.;1;Bon;;;;;;;;;;;;
5;Antenne;QDS;1;QDS;Boul. St-Laurent / Boul. de Maisonneuve O;335;5SA06;45.510713;-73.565426;Terminé;Noir;Noir;Noir;Noir;;;;;8;8;10;;Approuvé;Fini Signé;Terminé;;Installé;oui;oui;oui;oui;oui;oui;oui;;;;;;1;Bon;;;;;;;;;;;;
5;Antenne;QDS;1;QDS;Rue de Boisbriand;6180;5SA07;45.511616;-73.562946;Terminé;Ancien Gris;Noir;Ancien Gris;Noir;;;;;9;9;10;;Approuvé;Fini Signé;Terminé;;Installé;oui ;oui;oui;oui;oui;oui;oui;;;;;;1;Bon;;;;;;;;;;;;
5;Antenne;QDS;1;QDS;Rue Saint-dominique / Rue de Boisbriand;5935;5SA08;45.510974;-73.563888;Terminé;Ancien Gris;Noir;Ancien Gris;Noir;;;;;9;9;10;;Approuvé;Fini Signé;Terminé;;Installé;oui ;oui;oui;oui;oui;oui;oui;;;;;;1;Bon;;;;;;;;;;;;
5;Antenne;QDS;1;QDS;Boul. St-Laurent / Place du Marché;9284;5SA09;45.509294;-73.562084;Terminé;Noir;Noir;Noir;Noir;;;;;33;33;40;;Approuvé;Fini Signé;Terminé;oui;Installé;oui ;oui ;oui;oui;oui;oui;;;;;;STP pas connecté au niveau de L'AP;1;Bon;;;;;;;;;;;;
5;Antenne;QDS;1;QDS;Rue de Bleury / Rue Sherbrooke O;298;5SA10;45.508390;-73.571131;Terminé;Noir;Noir;Noir;Noir;;;;;9;9;10;62;Approuvé;Fini Signé;Terminé;;Installé;oui ;oui;oui;oui;oui;oui;;;;;;;1;Bon;;;;;;;;;;;;
5;Antenne;QDS;1;QDS;Rue Jeanne-Mance / Rue Sherbrooke O;326;5SA11;45.509243;-73.570972;Terminé;Noir;Noir;Noir;Noir;;;;;9;9;10;37;Approuvé;Fini Signé;Terminé;;Installé;oui ;oui;oui;oui;oui;oui;;;;;;;1;Bon;;;;;;;;;;;;
5;Antenne;QDS;1;QDS;Rue Saint-Urbain / Rue Sherbrooke O;371;5SA12;45.511068;-73.570202;Terminé;Noir;Noir;Noir;Noir;;;;;57;58;80;;Approuvé;Fini Signé;Terminé;;Installé;oui ;oui;;oui;oui;oui;;;;;;Alimenté dans auxiliére du contréleur + Souterrain é réviser sur plan;1;Bon;;;;;;;;;;;;
5;Antenne;QDS;1;QDS;Av. de l'Hétel-de-ville / Rue Sherbrooke E;489;5SA13;45.514604;-73.568366;Terminé;Noir;Noir;Noir;Noir;;;;;13;13;30;;Approuvé;Fini Signé;Terminé;;Installé;oui ;oui;oui;oui;oui;oui;;;;;;Alimenté dans auxiliére du contréleur;1;Bon;;;;;;;;;;;;
5;Antenne;QDS;1;QDS;Rue Berri / Rue Sherbrooke E;482;5SA14;45.518044;-73.566781;Terminé;Noir;Noir;Noir;Noir;;;;;7;7;10;;Approuvé;Fini Signé;Terminé;;Installé;oui ;oui;oui;oui;;oui;;;;;;;1;Bon;;;;;;;;;;;;
5;Antenne;QDS;1;QDS;Rue St-Hubert / Rue Ontario E;498;5SA15;45.517835;-73.564415;Terminé;Noir;Noir;Noir;Noir;;;;probléme;9;;10;;Approuvé;Fini Signé;Terminé;;probléme;probléme;;;;;;;;;;;Restriction PA#8607;3;Faible;;;;;;;;;;;;
5;Antenne;QDS;1;QDS;Av. de l'Hétel-de-ville / Rue Ontario E;487;5SA16;45.513425;-73.566166;Terminé;Ancien Gris;Noir;Ancien Gris;Noir;large;;;;8;;10;43;Approuvé;Fini Signé;Terminé;;Installé;En cours;En cours;;oui;;;;;;;;Restriction PA#6957;3;Faible;;;;;;;;;;;;
5;Antenne;QDS;1;QDS;Boul. de Maisonneuve E;491;5SA17;45.512338;-73.563710;Terminé;Noir;Noir;Ancien Gris;Noir;;;;;13;;30;;Approuvé;Fini Signé;Terminé;;Installé;oui;oui;oui;oui;;oui;;;;;;;1;Bon;;;;;;;;;;;;
5;Antenne;QDS;1;QDS;Rue St-Denis / Rue émery;2035;5SA18;45.515026;-73.563180;Terminé;Noir;Noir;Noir;Noir;;;;;8;;10;;Approuvé;Fini Signé;Terminé;;Installé;oui ;oui ;oui;oui;;;;;;;;;1;Bon;;;;;;;;;;;;
5;Antenne;QDS;1;QDS;Rue Saint-Denis / Boul. René-Lévesque E;441;5SA19;45.512862;-73.558294;Terminé;Noir;Noir;Noir;Noir;;;;;8;8;10;;Approuvé;Fini Signé;Terminé;;Installé;oui ;oui;oui;oui;oui;oui;oui;;;;;Alimenté dans auxiliére du contréleur;1;Bon;;;;;;;;;;;;
5;Antenne;QDS;1;QDS;Av. de l'Hotel-de-Ville / Boul. René-Lévesque E;439;5SA20;45.510736;-73.560227;Terminé;Noir;Noir;Noir;Noir;;;;;27;27;30;;Approuvé;Fini Signé;Terminé;oui;Installé;oui ;oui;;oui;oui;oui;oui;;;;;;1;Bon;;;;;;;;;;;;
5;Antenne;QDS;1;QDS;Boul. St-Laurent / Boul. René-Lévesque;443;5SA21;45.509006;-73.561684;Terminé;Noir;Noir;Noir;Noir;;;;;17;17;30;;Approuvé;Fini Signé;Terminé;oui;Installé;oui ;oui;;oui;oui;oui;;;;;;;1;Bon;;;;;;;;;;;;
5;Antenne;QDS;1;QDS;Rue Jeanne-Mance / Boul. René Lévesque O;417;5SA22;45.506179;-73.564278;Terminé;Ancien Gris;Noir;Ancien Gris;Noir;;;;;9;9;10;31;Approuvé;Fini Signé;Terminé;;Installé;oui ;oui;oui;oui;oui;oui;oui;;;;;Alimenté dans auxiliére du contréleur;1;Bon;;;;;;;;;;;;
5;Antenne;QDS;1;QDS;Rue St-Alexandre / Rue Saint-Catherine;360;5SA23;45.505259;-73.567707;Terminé;Noir;Noir;Noir;Noir;;;;;9;9;10;;Approuvé;Fini Signé;Terminé;;Installé;oui ;oui;oui;oui;oui;oui;oui;;;;;;1;Bon;;;;;;;;;;;;
5;Antenne;QDS;1;QDS;Rue St-Alexandre / Boul. René- Lévesque O;422;5SA24;45.504240;-73.565245;Terminé;Noir;Noir;Noir;Noir;;;;;8;8;10;;Approuvé;Fini Signé;Terminé;;Installé;oui ;oui;oui;oui;oui;oui;oui;;;;;Alimenté sur phase noir dans coffret de branchement;1;Bon;;;;;;;;;;;;
5;Antenne;QDS;1;QDS;Rue Berri / Rue Ontario E;479;5SA25;45.516866;-73.564666;Terminé;Noir;Noir;Noir;Noir;;;;;56;56;80;;Approuvé;Fini Signé;Terminé;;Installé;oui ;oui ;oui;oui;oui;oui;;;;;;Installé sur Jalonnement + Attente de révision de plan;1;Bon;;;;;;;;;;;;
5;Antenne;QDS - BFO;1;QDS;Rue St-Hubert / Rue Sainte-Catherine E;507;5SD01;45.515569;-73.558931;Terminé;Noir;Noir;Noir;Noir;;;;;33;33;40;44;Approuvé;Fini Signé;Terminé;oui;Installé;oui;;;oui;oui;;;;;;;Cabinet BFO installé (Chemin de céble B(ct) = 1-A-8);1;Bon;;;;;;;;;;;;
5;Antenne;QDS - BFO;1;QDS;Rue Berri / Rue Sainte-Catherine E;481;5SD02;45.514536;-73.559875;Terminé;Noir;Noir;Noir;Noir;;;;;9;9;10;31;Approuvé;Fini Signé;Terminé;;Installé;oui;oui;oui;oui;oui;oui;oui;;;;;;1;Bon;;;;;;;;;;;;
5;Antenne;QDS - BFO;1;QDS;Rue Saint-Denis / Rue Sainte-Catherine E;506;5SD03;45.513793;-73.560321;Terminé;Noir;Noir;Noir;Noir;;;;;56;56;80;59;Approuvé;Fini Signé;Terminé;oui;Installé;oui;;;oui;oui;;oui;;;;;;1;Bon;;;;;;;;;;;;
5;Antenne;QDS - BFO;1;QDS;Rue Sanguinet / Rue Sainte-Catherine Est;508;5SD04;45.512891;-73.561307;Terminé;Noir;Noir;Noir;Noir;;;;;35;35;40;31;Approuvé;Fini Signé;Terminé;oui;Installé;oui;oui;;oui;oui;;oui;;;;;;1;Bon;;;;;;;;;;;;
5;Antenne;QDS - BFO;1;QDS;Av. de l'Hétel-de-Ville / Rue Sainte-Catherine E;488;5SD05;45.511635;-73.562179;Terminé;Noir;Noir;Noir;Noir;;;;;8;8;10;;Approuvé;Fini Signé;Terminé;;Installé;oui ;oui;oui;oui;oui;oui;oui;;;;;;1;Bon;;;;;;;;;;;;
5;Antenne;QDS - BFO;1;QDS;Boul. St-Laurent / Rue Sainte-Catherine E;361;5SD06;45.509815;-73.563968;Terminé;Noir;Noir;Noir;Noir;;;;;8;8;10;;Approuvé;Fini Signé;Terminé;;Installé;oui ;oui;oui;oui;oui;oui;oui;;;;;;1;Bon;;;;;;;;;;;;
5;Antenne;QDS - BFO;1;QDS;Rue Sainte-Catherine / Rue de Bleury;297;5SD07;45.506289;-73.566771;Terminé;Noir;Noir;Noir;Noir;;;;;34;34;40;95;Approuvé;Fini Signé;Terminé;oui;Installé;oui;;;oui;oui;;oui;;;;;;1;Bon;;;;;;;;;;;;
5;Antenne;QDS - BFO;1;QDS;Rue de Bleury / Boul. de Maisonneuve O;296;5SD08;45.507087;-73.568846;Terminé;Ancien Gris;Noir;Noir;Noir;;;;;62;62;80;;Approuvé;Fini Signé;Terminé;oui;Installé;oui;;;oui;oui;;;;;;;;1;Bon;;;;;;;;;;;;
5;Antenne;QDS - BFO;1;QDS;Rue de Bleury / Boul. René-Lévesque O;411;5SD09;45.505134;-73.564780;Terminé;Ancien Gris;Noir;Ancien Gris;Noir;;;;;32;32;40;30;Approuvé;Fini Signé;Terminé;oui;Installé;oui;;;oui;oui;;oui;;;;;Cabinet BFO installé;1;Bon;;;;;;;;;;;;
5;Antenne;QDS - BFO;1;QDS;Boul. St-Laurent / Rue Sherbrooke O;368;5SD10;45.512444;-73.569618;Terminé;Noir;Noir;Noir;Noir;;;;;71;71;80;;Approuvé;Fini Signé;Terminé;oui;Installé;oui ;oui;;oui;oui;oui;oui;;;;;;1;Bon;;;;;;;;;;;;
5;Antenne;QDS - BFO;1;QDS;Rue St-Denis / Rue Ontario E;497;5SD11;45.515913;-73.565108;Terminé;Noir;Noir;Noir;Noir;;;;;34;34;40;53;Approuvé;Fini Signé;Terminé;oui;Installé;oui;oui;;oui;oui;;;;;;;Cabinet BFO installé;1;Bon;;;;;;;;;;;;
5;Antenne;QDS - BFO;1;QDS;Rue Saint-Denis / Boul. de Maisonneuve E;493;5SD12;45.514407;-73.562102;Terminé;Noir;Noir;Noir;Noir;;;;;7;7;10;;Approuvé;Fini Signé;Terminé;;Installé;oui;oui;oui;oui;oui;oui;oui;;;;;;1;Bon;;;;;;;;;;;;
5;Antenne;QDS - BFO;1;QDS;Rue Berri / Boul. de Maisonneuve E;478;5SD14;45.515446;-73.561142;Terminé;Noir;Noir;Noir;Noir;;;;probléme;52;;80;;Approuvé;Fini Signé;Terminé;;Installé;probléme;;;oui;oui;;;;;;;Cabinet BFO installé, attente de la MAN pour l'alimentation;3;Faible;;;;;;;;;;;;
5;Antenne;QDS - BFO;1;QDS;Rue St-Hubert / Boul. de Maisonneuve E;494;5SD15;45.516066;-73.560502;Terminé;Ancien Gris;Noir;noir;Noir;;;;;56;56;80;;Approuvé;Fini Signé;Terminé;oui;Installé;oui;;;oui;oui;;oui;;;;;Cabinet BFO installé;1;Bon;;;;;;;;;;;;
5;Antenne;QDS - BFO;1;QDS;Rue Berger / Rue Sainte-Catherine E;5095;5SD16;45.510771;-73.563155;Terminé;Noir;Noir;Noir;Noir;;;;;9;9;10;71;Approuvé;Fini Signé;Terminé;;Installé;oui;oui;oui;oui;oui;oui;oui;;;;;;1;Bon;;;;;;;;;;;;
5;BFO;BFO;1;QDS;Rue Berri / Rue Ontario E;479 (2);5SD17;45.516705;-73.564322;Terminé;N/A;N/A;Noir;Noir;;;;;N/A;;N/A;;Approuvé;Fini Signé;Terminé;;Installé;oui;;;oui;oui;;;;;;;Switch installé dans BFO Only!! (nous ne pouvons pas installer des équipements Wifi sur les bornes de Jalonnement `Chheng``);1;Bon;;;;;;;;;;;;
5;Antenne;QDS - BFO;1;QDS;Rue Sanguinet / Rue Ontario E;499;5SD18;45.514783;-73.565532;Terminé;Noir;Noir;Ancien Gris;Noir;;;;;29;29;30;;Approuvé;Fini Signé;Terminé;;Installé;oui ;oui;oui;oui;oui;oui;oui;;;;;;1;Bon;;;;;;;;;;;;
5;Antenne;QDS - BFO;1;QDS;Rue Saint-Denis / Rue Sherbrooke;510;5SD19;45.516793;-73.567640;Terminé;Noir;Noir;Noir;Noir;;;;probléme;47;;80;;Approuvé;Fini Signé;Terminé;;Installé;probléme;;;oui;oui;;;;;;;Cabinet BFO (Restriction de P.A.);3;Faible;;;;;;;;;;;;
5;BFO;BFO;1;QDS;Av. Coloniale / Rue Sherbrooke;1382;5SD20;45.513453;-73.568885;Terminé;N/A;N/A;Noir;Noir;;;;;N/A;;N/A;;Approuvé;Fini Signé;Terminé;;Installé;oui;;;oui;oui;;;;;;;Attente révision de plan;1;Bon;;;;;;;;;;;;