ID_MAP,LAT,LONG
4HA05,45.503927,-73.553814
4HA07,45.501224,-73.556254
4VA01,45.498229,-73.555214
4VA02,45.500559,-73.558521
4VA08,45.514213,-73.552578
4VA11,45.506918,-73.557117
4VA15,45.509191,-73.553383
4VA16,45.509889,-73.554910
4VA18,45.511263,-73.551753
4VA20,45.511126,-73.550169
4VA21,45.511874,-73.549692
4VA22,45.509544,-73.550954
4VA23,45.508841,-73.551319
4VA27,45.506267,-73.553215
4VA29,45.501632,-73.553904
4VA31,45.500157,-73.553199
4VA34,45.496687,-73.553086
4VA35,45.511004,-73.554632
4VA38,45.506085,-73.555617
5CA07,45.506150,-73.570935
5CA20,45.506892,-73.560961
5CA21,45.517409,-73.557227
5CA22,45.521131,-73.553804
5CA23,45.522733,-73.552346
5CA24,45.523941,-73.555100
5CA25,45.525776,-73.559572
5CA26,45.522970,-73.561184
5CA27,45.520318,-73.562939
5CA29,45.510499,-73.556619
5CA31,45.512366,-73.554930
5CA32,45.512232,-73.557020
5CA33,45.518934,-73.555844
5CA34,45.502157,-73.564468
5JA02,45.511945,-73.579497
5JA03,45.513363,-73.582317
5JA04,45.5146,-73.584840
5JA05,45.516145,-73.58826
5JA06,45.516774,-73.588946
5PA01,45.504987,-73.573254
5PA02,45.504019,-73.568880
5PA03,45.501988,-73.567072
5PA04,45.500085,-73.569245
5PA05,45.498453,-73.570288
5PA06,45.496451,-73.572195
5PA07,45.493714,-73.575119
5PA08,45.495099,-73.577653
5PA09,45.497069,-73.575613
5PA10,45.500112,-73.572982
5PA11,45.502080,-73.571011
5PA12,45.503943,-73.571633
5PA13,45.500809,-73.574847
5PA14,45.498064,-73.577659
5PA16,45.496618,-73.581893
5PA17,45.498833,-73.579364
5PA19,45.498670,-73.574132
5PA20,45.503069,-73.566141
5PA21,45.500450,-73.577794
5SA03,45.508287,-73.568395
5SA04,45.511898,-73.567976
5SA05,45.511321,-73.566650
5SA06,45.510713,-73.565426
5SA07,45.511616,-73.562946
5SA08,45.510974,-73.563888
5SA09,45.509294,-73.562084
5SA10,45.508390,-73.571131
5SA11,45.509243,-73.570972
5SA12,45.511068,-73.570202
5SA13,45.514604,-73.568366
5SA14,45.518044,-73.566781
5SA17,45.512338,-73.563710
5SA18,45.515026,-73.563180
5SA19,45.512862,-73.558294
5SA20,45.510736,-73.560227
5SA21,45.509006,-73.561684
5SA22,45.506179,-73.564278
5SA23,45.505259,-73.567707
5SA24,45.504240,-73.565245
5SA25,45.516866,-73.564666
5SD01,45.515569,-73.558931
5SD02,45.514536,-73.559875
5SD03,45.513793,-73.560321
5SD04,45.512891,-73.561307
5SD05,45.511635,-73.562179
5SD06,45.509815,-73.563968
5SD07,45.506289,-73.566771
5SD08,45.507087,-73.568846
5SD09,45.505134,-73.564780
5SD10,45.512444,-73.569618
5SD11,45.515913,-73.565108
5SD12,45.514407,-73.562102
5SD15,45.516066,-73.560502
5SD16,45.510771,-73.563155
5SD17,45.516705,-73.564322
5SD18,45.514783,-73.565532
5SD20,45.513453,-73.568885
A0-MH,45.500221,-73.553612
BB0,45.503014,-73.555123
CC0,45.501337,-73.555539
DD0,45.502034,-73.557959
EE0,45.502759,-73.557628
FF0,45.502735,-73.555258
G0-MH,45.507558,-73.552384
GG0,45.505152,-73.553969
I0-MH,45.511487,-73.55156
K0-MH,45.50395,-73.55745
KK0,45.503005,-73.558089
L0-MH,45.509411,-73.553957
LL0,45.502807,-73.5564