[
    {
        "ID_MAP": "5CA07", 
        "ID_MAP_A": "VIGER", 
        "ID_MAP_B": "5PA02", 
        "ID_NODE": 0, 
        "ID_RING": 0, 
        "IP_A": "10.255.200.1", 
        "IP_B": "10.255.200.2", 
        "IP_LOOPBACK": "10.53.243.0", 
        "LOT_ID": 5, 
        "LOT_NAME": "QDC", 
        "NB_NODE": 6, 
        "PAIR": 25, 
        "RING_TYPE": "VILLE", 
        "SEQ": 768, 
        "SUBNET_AP": "10.52.96.1"
    }, 
    {
        "ID_MAP": "5PA02", 
        "ID_MAP_A": "5CA07", 
        "ID_MAP_B": "5PA20", 
        "ID_NODE": 1, 
        "ID_RING": 0, 
        "IP_A": "10.255.200.3", 
        "IP_B": "10.255.200.4", 
        "IP_LOOPBACK": "10.53.243.1", 
        "LOT_ID": 5, 
        "LOT_NAME": "QDC", 
        "NB_NODE": 6, 
        "PAIR": 25, 
        "RING_TYPE": "VILLE", 
        "SEQ": 769, 
        "SUBNET_AP": "10.52.96.33"
    }, 
    {
        "ID_MAP": "5PA20", 
        "ID_MAP_A": "5PA02", 
        "ID_MAP_B": "5CA15", 
        "ID_NODE": 2, 
        "ID_RING": 0, 
        "IP_A": "10.255.200.5", 
        "IP_B": "10.255.200.6", 
        "IP_LOOPBACK": "10.53.243.2", 
        "LOT_ID": 5, 
        "LOT_NAME": "QDC", 
        "NB_NODE": 6, 
        "PAIR": 25, 
        "RING_TYPE": "VILLE", 
        "SEQ": 770, 
        "SUBNET_AP": "10.52.96.65"
    }, 
    {
        "ID_MAP": "5CA15", 
        "ID_MAP_A": "5PA20", 
        "ID_MAP_B": "5CA33", 
        "ID_NODE": 3, 
        "ID_RING": 0, 
        "IP_A": "10.255.200.7", 
        "IP_B": "10.255.200.8", 
        "IP_LOOPBACK": "10.53.243.3", 
        "LOT_ID": 5, 
        "LOT_NAME": "QDC", 
        "NB_NODE": 6, 
        "PAIR": 25, 
        "RING_TYPE": "VILLE", 
        "SEQ": 771, 
        "SUBNET_AP": "10.52.96.97"
    }, 
    {
        "ID_MAP": "5CA33", 
        "ID_MAP_A": "5CA15", 
        "ID_MAP_B": "5CA29", 
        "ID_NODE": 4, 
        "ID_RING": 0, 
        "IP_A": "10.255.200.9", 
        "IP_B": "10.255.200.10", 
        "IP_LOOPBACK": "10.53.243.4", 
        "LOT_ID": 5, 
        "LOT_NAME": "QDC", 
        "NB_NODE": 6, 
        "PAIR": 25, 
        "RING_TYPE": "VILLE", 
        "SEQ": 772, 
        "SUBNET_AP": "10.52.96.129"
    }, 
    {
        "ID_MAP": "5CA29", 
        "ID_MAP_A": "5CA33", 
        "ID_MAP_B": "VIGER", 
        "ID_NODE": 5, 
        "ID_RING": 0, 
        "IP_A": "10.255.200.11", 
        "IP_B": "10.255.200.12", 
        "IP_LOOPBACK": "10.53.243.5", 
        "LOT_ID": 5, 
        "LOT_NAME": "QDC", 
        "NB_NODE": 6, 
        "PAIR": 25, 
        "RING_TYPE": "VILLE", 
        "SEQ": 773, 
        "SUBNET_AP": "10.52.96.161"
    }, 
    {
        "ID_MAP": "5PA03", 
        "ID_MAP_A": "VIGER", 
        "ID_MAP_B": "5CA34", 
        "ID_NODE": 0, 
        "ID_RING": 1, 
        "IP_A": "10.255.200.21", 
        "IP_B": "10.255.200.22", 
        "IP_LOOPBACK": "10.53.243.8", 
        "LOT_ID": 5, 
        "LOT_NAME": "QDC", 
        "NB_NODE": 7, 
        "PAIR": 27, 
        "RING_TYPE": "VILLE", 
        "SEQ": 776, 
        "SUBNET_AP": "10.52.97.1"
    }, 
    {
        "ID_MAP": "5CA34", 
        "ID_MAP_A": "5PA03", 
        "ID_MAP_B": "5PA04", 
        "ID_NODE": 1, 
        "ID_RING": 1, 
        "IP_A": "10.255.200.23", 
        "IP_B": "10.255.200.24", 
        "IP_LOOPBACK": "10.53.243.9", 
        "LOT_ID": 5, 
        "LOT_NAME": "QDC", 
        "NB_NODE": 7, 
        "PAIR": 27, 
        "RING_TYPE": "VILLE", 
        "SEQ": 777, 
        "SUBNET_AP": "10.52.97.33"
    }, 
    {
        "ID_MAP": "5PA04", 
        "ID_MAP_A": "5CA34", 
        "ID_MAP_B": "5PA05", 
        "ID_NODE": 2, 
        "ID_RING": 1, 
        "IP_A": "10.255.200.25", 
        "IP_B": "10.255.200.26", 
        "IP_LOOPBACK": "10.53.243.10", 
        "LOT_ID": 5, 
        "LOT_NAME": "QDC", 
        "NB_NODE": 7, 
        "PAIR": 27, 
        "RING_TYPE": "VILLE", 
        "SEQ": 778, 
        "SUBNET_AP": "10.52.97.65"
    }, 
    {
        "ID_MAP": "5PA05", 
        "ID_MAP_A": "5PA04", 
        "ID_MAP_B": "5CA21", 
        "ID_NODE": 3, 
        "ID_RING": 1, 
        "IP_A": "10.255.200.27", 
        "IP_B": "10.255.200.28", 
        "IP_LOOPBACK": "10.53.243.11", 
        "LOT_ID": 5, 
        "LOT_NAME": "QDC", 
        "NB_NODE": 7, 
        "PAIR": 27, 
        "RING_TYPE": "VILLE", 
        "SEQ": 779, 
        "SUBNET_AP": "10.52.97.97"
    }, 
    {
        "ID_MAP": "5CA21", 
        "ID_MAP_A": "5PA05", 
        "ID_MAP_B": "5CA32", 
        "ID_NODE": 4, 
        "ID_RING": 1, 
        "IP_A": "10.255.200.29", 
        "IP_B": "10.255.200.30", 
        "IP_LOOPBACK": "10.53.243.12", 
        "LOT_ID": 5, 
        "LOT_NAME": "QDC", 
        "NB_NODE": 7, 
        "PAIR": 27, 
        "RING_TYPE": "VILLE", 
        "SEQ": 780, 
        "SUBNET_AP": "10.52.97.129"
    }, 
    {
        "ID_MAP": "5CA32", 
        "ID_MAP_A": "5CA21", 
        "ID_MAP_B": "5CA31", 
        "ID_NODE": 5, 
        "ID_RING": 1, 
        "IP_A": "10.255.200.31", 
        "IP_B": "10.255.200.32", 
        "IP_LOOPBACK": "10.53.243.13", 
        "LOT_ID": 5, 
        "LOT_NAME": "QDC", 
        "NB_NODE": 7, 
        "PAIR": 27, 
        "RING_TYPE": "VILLE", 
        "SEQ": 781, 
        "SUBNET_AP": "10.52.97.161"
    }, 
    {
        "ID_MAP": "5CA31", 
        "ID_MAP_A": "5CA32", 
        "ID_MAP_B": "VIGER", 
        "ID_NODE": 6, 
        "ID_RING": 1, 
        "IP_A": "10.255.200.33", 
        "IP_B": "10.255.200.34", 
        "IP_LOOPBACK": "10.53.243.14", 
        "LOT_ID": 5, 
        "LOT_NAME": "QDC", 
        "NB_NODE": 7, 
        "PAIR": 27, 
        "RING_TYPE": "VILLE", 
        "SEQ": 782, 
        "SUBNET_AP": "10.52.97.193"
    }, 
    {
        "ID_MAP": "5PA06", 
        "ID_MAP_A": "VIGER", 
        "ID_MAP_B": "5PA07", 
        "ID_NODE": 0, 
        "ID_RING": 2, 
        "IP_A": "10.255.200.41", 
        "IP_B": "10.255.200.42", 
        "IP_LOOPBACK": "10.53.243.16", 
        "LOT_ID": 5, 
        "LOT_NAME": "QDC", 
        "NB_NODE": 7, 
        "PAIR": 29, 
        "RING_TYPE": "VILLE", 
        "SEQ": 784, 
        "SUBNET_AP": "10.52.98.1"
    }, 
    {
        "ID_MAP": "5PA07", 
        "ID_MAP_A": "5PA06", 
        "ID_MAP_B": "5PA08", 
        "ID_NODE": 1, 
        "ID_RING": 2, 
        "IP_A": "10.255.200.43", 
        "IP_B": "10.255.200.44", 
        "IP_LOOPBACK": "10.53.243.17", 
        "LOT_ID": 5, 
        "LOT_NAME": "QDC", 
        "NB_NODE": 7, 
        "PAIR": 29, 
        "RING_TYPE": "VILLE", 
        "SEQ": 785, 
        "SUBNET_AP": "10.52.98.33"
    }, 
    {
        "ID_MAP": "5PA08", 
        "ID_MAP_A": "5PA07", 
        "ID_MAP_B": "5CA18", 
        "ID_NODE": 2, 
        "ID_RING": 2, 
        "IP_A": "10.255.200.45", 
        "IP_B": "10.255.200.46", 
        "IP_LOOPBACK": "10.53.243.18", 
        "LOT_ID": 5, 
        "LOT_NAME": "QDC", 
        "NB_NODE": 7, 
        "PAIR": 29, 
        "RING_TYPE": "VILLE", 
        "SEQ": 786, 
        "SUBNET_AP": "10.52.98.65"
    }, 
    {
        "ID_MAP": "5CA18", 
        "ID_MAP_A": "5PA08", 
        "ID_MAP_B": "5CA24", 
        "ID_NODE": 3, 
        "ID_RING": 2, 
        "IP_A": "10.255.200.47", 
        "IP_B": "10.255.200.48", 
        "IP_LOOPBACK": "10.53.243.19", 
        "LOT_ID": 5, 
        "LOT_NAME": "QDC", 
        "NB_NODE": 7, 
        "PAIR": 29, 
        "RING_TYPE": "VILLE", 
        "SEQ": 787, 
        "SUBNET_AP": "10.52.98.97"
    }, 
    {
        "ID_MAP": "5CA24", 
        "ID_MAP_A": "5CA18", 
        "ID_MAP_B": "5CA23", 
        "ID_NODE": 4, 
        "ID_RING": 2, 
        "IP_A": "10.255.200.49", 
        "IP_B": "10.255.200.50", 
        "IP_LOOPBACK": "10.53.243.20", 
        "LOT_ID": 5, 
        "LOT_NAME": "QDC", 
        "NB_NODE": 7, 
        "PAIR": 29, 
        "RING_TYPE": "VILLE", 
        "SEQ": 788, 
        "SUBNET_AP": "10.52.98.129"
    }, 
    {
        "ID_MAP": "5CA23", 
        "ID_MAP_A": "5CA24", 
        "ID_MAP_B": "5CA22", 
        "ID_NODE": 5, 
        "ID_RING": 2, 
        "IP_A": "10.255.200.51", 
        "IP_B": "10.255.200.52", 
        "IP_LOOPBACK": "10.53.243.21", 
        "LOT_ID": 5, 
        "LOT_NAME": "QDC", 
        "NB_NODE": 7, 
        "PAIR": 29, 
        "RING_TYPE": "VILLE", 
        "SEQ": 789, 
        "SUBNET_AP": "10.52.98.161"
    }, 
    {
        "ID_MAP": "5CA22", 
        "ID_MAP_A": "5CA23", 
        "ID_MAP_B": "VIGER", 
        "ID_NODE": 6, 
        "ID_RING": 2, 
        "IP_A": "10.255.200.53", 
        "IP_B": "10.255.200.54", 
        "IP_LOOPBACK": "10.53.243.22", 
        "LOT_ID": 5, 
        "LOT_NAME": "QDC", 
        "NB_NODE": 7, 
        "PAIR": 29, 
        "RING_TYPE": "VILLE", 
        "SEQ": 790, 
        "SUBNET_AP": "10.52.98.193"
    }, 
    {
        "ID_MAP": "5PA09", 
        "ID_MAP_A": "VIGER", 
        "ID_MAP_B": "5PA19", 
        "ID_NODE": 0, 
        "ID_RING": 3, 
        "IP_A": "10.255.200.61", 
        "IP_B": "10.255.200.62", 
        "IP_LOOPBACK": "10.53.243.24", 
        "LOT_ID": 5, 
        "LOT_NAME": "QDC", 
        "NB_NODE": 7, 
        "PAIR": 31, 
        "RING_TYPE": "VILLE", 
        "SEQ": 792, 
        "SUBNET_AP": "10.52.99.1"
    }, 
    {
        "ID_MAP": "5PA19", 
        "ID_MAP_A": "5PA09", 
        "ID_MAP_B": "5PA10", 
        "ID_NODE": 1, 
        "ID_RING": 3, 
        "IP_A": "10.255.200.63", 
        "IP_B": "10.255.200.64", 
        "IP_LOOPBACK": "10.53.243.25", 
        "LOT_ID": 5, 
        "LOT_NAME": "QDC", 
        "NB_NODE": 7, 
        "PAIR": 31, 
        "RING_TYPE": "VILLE", 
        "SEQ": 793, 
        "SUBNET_AP": "10.52.99.33"
    }, 
    {
        "ID_MAP": "5PA10", 
        "ID_MAP_A": "5PA19", 
        "ID_MAP_B": "5CA16", 
        "ID_NODE": 2, 
        "ID_RING": 3, 
        "IP_A": "10.255.200.65", 
        "IP_B": "10.255.200.66", 
        "IP_LOOPBACK": "10.53.243.26", 
        "LOT_ID": 5, 
        "LOT_NAME": "QDC", 
        "NB_NODE": 7, 
        "PAIR": 31, 
        "RING_TYPE": "VILLE", 
        "SEQ": 794, 
        "SUBNET_AP": "10.52.99.65"
    }, 
    {
        "ID_MAP": "5CA16", 
        "ID_MAP_A": "5PA10", 
        "ID_MAP_B": "5CA27", 
        "ID_NODE": 3, 
        "ID_RING": 3, 
        "IP_A": "10.255.200.67", 
        "IP_B": "10.255.200.68", 
        "IP_LOOPBACK": "10.53.243.27", 
        "LOT_ID": 5, 
        "LOT_NAME": "QDC", 
        "NB_NODE": 7, 
        "PAIR": 31, 
        "RING_TYPE": "VILLE", 
        "SEQ": 795, 
        "SUBNET_AP": "10.52.99.97"
    }, 
    {
        "ID_MAP": "5CA27", 
        "ID_MAP_A": "5CA16", 
        "ID_MAP_B": "5CA26", 
        "ID_NODE": 4, 
        "ID_RING": 3, 
        "IP_A": "10.255.200.69", 
        "IP_B": "10.255.200.70", 
        "IP_LOOPBACK": "10.53.243.28", 
        "LOT_ID": 5, 
        "LOT_NAME": "QDC", 
        "NB_NODE": 7, 
        "PAIR": 31, 
        "RING_TYPE": "VILLE", 
        "SEQ": 796, 
        "SUBNET_AP": "10.52.99.129"
    }, 
    {
        "ID_MAP": "5CA26", 
        "ID_MAP_A": "5CA27", 
        "ID_MAP_B": "5CA25", 
        "ID_NODE": 5, 
        "ID_RING": 3, 
        "IP_A": "10.255.200.71", 
        "IP_B": "10.255.200.72", 
        "IP_LOOPBACK": "10.53.243.29", 
        "LOT_ID": 5, 
        "LOT_NAME": "QDC", 
        "NB_NODE": 7, 
        "PAIR": 31, 
        "RING_TYPE": "VILLE", 
        "SEQ": 797, 
        "SUBNET_AP": "10.52.99.161"
    }, 
    {
        "ID_MAP": "5CA25", 
        "ID_MAP_A": "5CA26", 
        "ID_MAP_B": "VIGER", 
        "ID_NODE": 6, 
        "ID_RING": 3, 
        "IP_A": "10.255.200.73", 
        "IP_B": "10.255.200.74", 
        "IP_LOOPBACK": "10.53.243.30", 
        "LOT_ID": 5, 
        "LOT_NAME": "QDC", 
        "NB_NODE": 7, 
        "PAIR": 31, 
        "RING_TYPE": "VILLE", 
        "SEQ": 798, 
        "SUBNET_AP": "10.52.99.193"
    }, 
    {
        "ID_MAP": "5CA20", 
        "ID_MAP_A": "VIGER", 
        "ID_MAP_B": "5PA11", 
        "ID_NODE": 0, 
        "ID_RING": 4, 
        "IP_A": "10.255.200.81", 
        "IP_B": "10.255.200.82", 
        "IP_LOOPBACK": "10.53.243.32", 
        "LOT_ID": 5, 
        "LOT_NAME": "QDC", 
        "NB_NODE": 5, 
        "PAIR": 33, 
        "RING_TYPE": "VILLE", 
        "SEQ": 800, 
        "SUBNET_AP": "10.52.100.1"
    }, 
    {
        "ID_MAP": "5PA11", 
        "ID_MAP_A": "5CA20", 
        "ID_MAP_B": "5PA12", 
        "ID_NODE": 1, 
        "ID_RING": 4, 
        "IP_A": "10.255.200.83", 
        "IP_B": "10.255.200.84", 
        "IP_LOOPBACK": "10.53.243.33", 
        "LOT_ID": 5, 
        "LOT_NAME": "QDC", 
        "NB_NODE": 5, 
        "PAIR": 33, 
        "RING_TYPE": "VILLE", 
        "SEQ": 801, 
        "SUBNET_AP": "10.52.100.33"
    }, 
    {
        "ID_MAP": "5PA12", 
        "ID_MAP_A": "5PA11", 
        "ID_MAP_B": "5PA13", 
        "ID_NODE": 2, 
        "ID_RING": 4, 
        "IP_A": "10.255.200.85", 
        "IP_B": "10.255.200.86", 
        "IP_LOOPBACK": "10.53.243.34", 
        "LOT_ID": 5, 
        "LOT_NAME": "QDC", 
        "NB_NODE": 5, 
        "PAIR": 33, 
        "RING_TYPE": "VILLE", 
        "SEQ": 802, 
        "SUBNET_AP": "10.52.100.65"
    }, 
    {
        "ID_MAP": "5PA13", 
        "ID_MAP_A": "5PA12", 
        "ID_MAP_B": "5CA17", 
        "ID_NODE": 3, 
        "ID_RING": 4, 
        "IP_A": "10.255.200.87", 
        "IP_B": "10.255.200.88", 
        "IP_LOOPBACK": "10.53.243.35", 
        "LOT_ID": 5, 
        "LOT_NAME": "QDC", 
        "NB_NODE": 5, 
        "PAIR": 33, 
        "RING_TYPE": "VILLE", 
        "SEQ": 803, 
        "SUBNET_AP": "10.52.100.97"
    }, 
    {
        "ID_MAP": "5CA17", 
        "ID_MAP_A": "5PA13", 
        "ID_MAP_B": "VIGER", 
        "ID_NODE": 4, 
        "ID_RING": 4, 
        "IP_A": "10.255.200.89", 
        "IP_B": "10.255.200.90", 
        "IP_LOOPBACK": "10.53.243.36", 
        "LOT_ID": 5, 
        "LOT_NAME": "QDC", 
        "NB_NODE": 5, 
        "PAIR": 33, 
        "RING_TYPE": "VILLE", 
        "SEQ": 804, 
        "SUBNET_AP": "10.52.100.129"
    }, 
    {
        "ID_MAP": "5PA14", 
        "ID_MAP_A": "VIGER", 
        "ID_MAP_B": "5PA15", 
        "ID_NODE": 0, 
        "ID_RING": 5, 
        "IP_A": "10.255.200.101", 
        "IP_B": "10.255.200.102", 
        "IP_LOOPBACK": "10.53.243.40", 
        "LOT_ID": 5, 
        "LOT_NAME": "QDC", 
        "NB_NODE": 4, 
        "PAIR": 35, 
        "RING_TYPE": "VILLE", 
        "SEQ": 808, 
        "SUBNET_AP": "10.52.101.1"
    }, 
    {
        "ID_MAP": "5PA15", 
        "ID_MAP_A": "5PA14", 
        "ID_MAP_B": "5PA16", 
        "ID_NODE": 1, 
        "ID_RING": 5, 
        "IP_A": "10.255.200.103", 
        "IP_B": "10.255.200.104", 
        "IP_LOOPBACK": "10.53.243.41", 
        "LOT_ID": 5, 
        "LOT_NAME": "QDC", 
        "NB_NODE": 4, 
        "PAIR": 35, 
        "RING_TYPE": "VILLE", 
        "SEQ": 809, 
        "SUBNET_AP": "10.52.101.33"
    }, 
    {
        "ID_MAP": "5PA16", 
        "ID_MAP_A": "5PA15", 
        "ID_MAP_B": "5CA19", 
        "ID_NODE": 2, 
        "ID_RING": 5, 
        "IP_A": "10.255.200.105", 
        "IP_B": "10.255.200.106", 
        "IP_LOOPBACK": "10.53.243.42", 
        "LOT_ID": 5, 
        "LOT_NAME": "QDC", 
        "NB_NODE": 4, 
        "PAIR": 35, 
        "RING_TYPE": "VILLE", 
        "SEQ": 810, 
        "SUBNET_AP": "10.52.101.65"
    }, 
    {
        "ID_MAP": "5CA19", 
        "ID_MAP_A": "5PA16", 
        "ID_MAP_B": "VIGER", 
        "ID_NODE": 3, 
        "ID_RING": 5, 
        "IP_A": "10.255.200.107", 
        "IP_B": "10.255.200.108", 
        "IP_LOOPBACK": "10.53.243.43", 
        "LOT_ID": 5, 
        "LOT_NAME": "QDC", 
        "NB_NODE": 4, 
        "PAIR": 35, 
        "RING_TYPE": "VILLE", 
        "SEQ": 811, 
        "SUBNET_AP": "10.52.101.97"
    }, 
    {
        "ID_MAP": "5PA17", 
        "ID_MAP_A": "VIGER", 
        "ID_MAP_B": "5PA21", 
        "ID_NODE": 0, 
        "ID_RING": 6, 
        "IP_A": "10.255.200.121", 
        "IP_B": "10.255.200.122", 
        "IP_LOOPBACK": "10.53.243.48", 
        "LOT_ID": 5, 
        "LOT_NAME": "QDC", 
        "NB_NODE": 4, 
        "PAIR": 37, 
        "RING_TYPE": "VILLE", 
        "SEQ": 816, 
        "SUBNET_AP": "10.52.102.1"
    }, 
    {
        "ID_MAP": "5PA21", 
        "ID_MAP_A": "5PA17", 
        "ID_MAP_B": "5PA18", 
        "ID_NODE": 1, 
        "ID_RING": 6, 
        "IP_A": "10.255.200.123", 
        "IP_B": "10.255.200.124", 
        "IP_LOOPBACK": "10.53.243.49", 
        "LOT_ID": 5, 
        "LOT_NAME": "QDC", 
        "NB_NODE": 4, 
        "PAIR": 37, 
        "RING_TYPE": "VILLE", 
        "SEQ": 817, 
        "SUBNET_AP": "10.52.102.33"
    }, 
    {
        "ID_MAP": "5PA18", 
        "ID_MAP_A": "5PA21", 
        "ID_MAP_B": "5PA01", 
        "ID_NODE": 2, 
        "ID_RING": 6, 
        "IP_A": "10.255.200.125", 
        "IP_B": "10.255.200.126", 
        "IP_LOOPBACK": "10.53.243.50", 
        "LOT_ID": 5, 
        "LOT_NAME": "QDC", 
        "NB_NODE": 4, 
        "PAIR": 37, 
        "RING_TYPE": "VILLE", 
        "SEQ": 818, 
        "SUBNET_AP": "10.52.102.65"
    }, 
    {
        "ID_MAP": "5PA01", 
        "ID_MAP_A": "5PA18", 
        "ID_MAP_B": "VIGER", 
        "ID_NODE": 3, 
        "ID_RING": 6, 
        "IP_A": "10.255.200.127", 
        "IP_B": "10.255.200.128", 
        "IP_LOOPBACK": "10.53.243.51", 
        "LOT_ID": 5, 
        "LOT_NAME": "QDC", 
        "NB_NODE": 4, 
        "PAIR": 37, 
        "RING_TYPE": "VILLE", 
        "SEQ": 819, 
        "SUBNET_AP": "10.52.102.97"
    }, 
    {
        "ID_MAP": "5SD17", 
        "ID_MAP_A": "VIGER", 
        "ID_MAP_B": "5SD11", 
        "ID_NODE": 0, 
        "ID_RING": 7, 
        "IP_A": "10.255.200.141", 
        "IP_B": "10.255.200.142", 
        "IP_LOOPBACK": "10.53.243.56", 
        "LOT_ID": 5, 
        "LOT_NAME": "QDC", 
        "NB_NODE": 6, 
        "PAIR": 49, 
        "RING_TYPE": "QDS", 
        "SEQ": 824, 
        "SUBNET_AP": "10.52.103.1"
    }, 
    {
        "ID_MAP": "5SD11", 
        "ID_MAP_A": "5SD17", 
        "ID_MAP_B": "5SD18", 
        "ID_NODE": 1, 
        "ID_RING": 7, 
        "IP_A": "10.255.200.143", 
        "IP_B": "10.255.200.144", 
        "IP_LOOPBACK": "10.53.243.57", 
        "LOT_ID": 5, 
        "LOT_NAME": "QDC", 
        "NB_NODE": 6, 
        "PAIR": 49, 
        "RING_TYPE": "QDS", 
        "SEQ": 825, 
        "SUBNET_AP": "10.52.103.33"
    }, 
    {
        "ID_MAP": "5SD18", 
        "ID_MAP_A": "5SD11", 
        "ID_MAP_B": "5SD12", 
        "ID_NODE": 2, 
        "ID_RING": 7, 
        "IP_A": "10.255.200.145", 
        "IP_B": "10.255.200.146", 
        "IP_LOOPBACK": "10.53.243.58", 
        "LOT_ID": 5, 
        "LOT_NAME": "QDC", 
        "NB_NODE": 6, 
        "PAIR": 49, 
        "RING_TYPE": "QDS", 
        "SEQ": 826, 
        "SUBNET_AP": "10.52.103.65"
    }, 
    {
        "ID_MAP": "5SD12", 
        "ID_MAP_A": "5SD18", 
        "ID_MAP_B": "5SD14", 
        "ID_NODE": 3, 
        "ID_RING": 7, 
        "IP_A": "10.255.200.147", 
        "IP_B": "10.255.200.148", 
        "IP_LOOPBACK": "10.53.243.59", 
        "LOT_ID": 5, 
        "LOT_NAME": "QDC", 
        "NB_NODE": 6, 
        "PAIR": 49, 
        "RING_TYPE": "QDS", 
        "SEQ": 827, 
        "SUBNET_AP": "10.52.103.97"
    }, 
    {
        "ID_MAP": "5SD14", 
        "ID_MAP_A": "5SD12", 
        "ID_MAP_B": "5SD15", 
        "ID_NODE": 4, 
        "ID_RING": 7, 
        "IP_A": "10.255.200.149", 
        "IP_B": "10.255.200.150", 
        "IP_LOOPBACK": "10.53.243.60", 
        "LOT_ID": 5, 
        "LOT_NAME": "QDC", 
        "NB_NODE": 6, 
        "PAIR": 49, 
        "RING_TYPE": "QDS", 
        "SEQ": 828, 
        "SUBNET_AP": "10.52.103.129"
    }, 
    {
        "ID_MAP": "5SD15", 
        "ID_MAP_A": "5SD14", 
        "ID_MAP_B": "VIGER", 
        "ID_NODE": 5, 
        "ID_RING": 7, 
        "IP_A": "10.255.200.151", 
        "IP_B": "10.255.200.152", 
        "IP_LOOPBACK": "10.53.243.61", 
        "LOT_ID": 5, 
        "LOT_NAME": "QDC", 
        "NB_NODE": 6, 
        "PAIR": 49, 
        "RING_TYPE": "QDS", 
        "SEQ": 829, 
        "SUBNET_AP": "10.52.103.161"
    }, 
    {
        "ID_MAP": "5SD20", 
        "ID_MAP_A": "VIGER", 
        "ID_MAP_B": "5SD19", 
        "ID_NODE": 0, 
        "ID_RING": 8, 
        "IP_A": "10.255.200.161", 
        "IP_B": "10.255.200.162", 
        "IP_LOOPBACK": "10.53.243.64", 
        "LOT_ID": 5, 
        "LOT_NAME": "QDC", 
        "NB_NODE": 6, 
        "PAIR": 51, 
        "RING_TYPE": "QDS", 
        "SEQ": 832, 
        "SUBNET_AP": "10.52.104.1"
    }, 
    {
        "ID_MAP": "5SD19", 
        "ID_MAP_A": "5SD20", 
        "ID_MAP_B": "5SA25", 
        "ID_NODE": 1, 
        "ID_RING": 8, 
        "IP_A": "10.255.200.163", 
        "IP_B": "10.255.200.164", 
        "IP_LOOPBACK": "10.53.243.65", 
        "LOT_ID": 5, 
        "LOT_NAME": "QDC", 
        "NB_NODE": 6, 
        "PAIR": 51, 
        "RING_TYPE": "QDS", 
        "SEQ": 833, 
        "SUBNET_AP": "10.52.104.33"
    }, 
    {
        "ID_MAP": "5SA25", 
        "ID_MAP_A": "5SD19", 
        "ID_MAP_B": "5SD01", 
        "ID_NODE": 2, 
        "ID_RING": 8, 
        "IP_A": "10.255.200.165", 
        "IP_B": "10.255.200.166", 
        "IP_LOOPBACK": "10.53.243.66", 
        "LOT_ID": 5, 
        "LOT_NAME": "QDC", 
        "NB_NODE": 6, 
        "PAIR": 51, 
        "RING_TYPE": "QDS", 
        "SEQ": 834, 
        "SUBNET_AP": "10.52.104.65"
    }, 
    {
        "ID_MAP": "5SD01", 
        "ID_MAP_A": "5SA25", 
        "ID_MAP_B": "5SD02", 
        "ID_NODE": 3, 
        "ID_RING": 8, 
        "IP_A": "10.255.200.167", 
        "IP_B": "10.255.200.168", 
        "IP_LOOPBACK": "10.53.243.67", 
        "LOT_ID": 5, 
        "LOT_NAME": "QDC", 
        "NB_NODE": 6, 
        "PAIR": 51, 
        "RING_TYPE": "QDS", 
        "SEQ": 835, 
        "SUBNET_AP": "10.52.104.97"
    }, 
    {
        "ID_MAP": "5SD02", 
        "ID_MAP_A": "5SD01", 
        "ID_MAP_B": "5SD03", 
        "ID_NODE": 4, 
        "ID_RING": 8, 
        "IP_A": "10.255.200.169", 
        "IP_B": "10.255.200.170", 
        "IP_LOOPBACK": "10.53.243.68", 
        "LOT_ID": 5, 
        "LOT_NAME": "QDC", 
        "NB_NODE": 6, 
        "PAIR": 51, 
        "RING_TYPE": "QDS", 
        "SEQ": 836, 
        "SUBNET_AP": "10.52.104.129"
    }, 
    {
        "ID_MAP": "5SD03", 
        "ID_MAP_A": "5SD02", 
        "ID_MAP_B": "VIGER", 
        "ID_NODE": 5, 
        "ID_RING": 8, 
        "IP_A": "10.255.200.171", 
        "IP_B": "10.255.200.172", 
        "IP_LOOPBACK": "10.53.243.69", 
        "LOT_ID": 5, 
        "LOT_NAME": "QDC", 
        "NB_NODE": 6, 
        "PAIR": 51, 
        "RING_TYPE": "QDS", 
        "SEQ": 837, 
        "SUBNET_AP": "10.52.104.161"
    }, 
    {
        "ID_MAP": "5SD04", 
        "ID_MAP_A": "VIGER", 
        "ID_MAP_B": "5SD05", 
        "ID_NODE": 0, 
        "ID_RING": 9, 
        "IP_A": "10.255.200.181", 
        "IP_B": "10.255.200.182", 
        "IP_LOOPBACK": "10.53.243.72", 
        "LOT_ID": 5, 
        "LOT_NAME": "QDC", 
        "NB_NODE": 4, 
        "PAIR": 53, 
        "RING_TYPE": "QDS", 
        "SEQ": 840, 
        "SUBNET_AP": "10.52.105.1"
    }, 
    {
        "ID_MAP": "5SD05", 
        "ID_MAP_A": "5SD04", 
        "ID_MAP_B": "5SD08", 
        "ID_NODE": 1, 
        "ID_RING": 9, 
        "IP_A": "10.255.200.183", 
        "IP_B": "10.255.200.184", 
        "IP_LOOPBACK": "10.53.243.73", 
        "LOT_ID": 5, 
        "LOT_NAME": "QDC", 
        "NB_NODE": 4, 
        "PAIR": 53, 
        "RING_TYPE": "QDS", 
        "SEQ": 841, 
        "SUBNET_AP": "10.52.105.33"
    }, 
    {
        "ID_MAP": "5SD08", 
        "ID_MAP_A": "5SD05", 
        "ID_MAP_B": "5SD10", 
        "ID_NODE": 2, 
        "ID_RING": 9, 
        "IP_A": "10.255.200.185", 
        "IP_B": "10.255.200.186", 
        "IP_LOOPBACK": "10.53.243.74", 
        "LOT_ID": 5, 
        "LOT_NAME": "QDC", 
        "NB_NODE": 4, 
        "PAIR": 53, 
        "RING_TYPE": "QDS", 
        "SEQ": 842, 
        "SUBNET_AP": "10.52.105.65"
    }, 
    {
        "ID_MAP": "5SD10", 
        "ID_MAP_A": "5SD08", 
        "ID_MAP_B": "VIGER", 
        "ID_NODE": 3, 
        "ID_RING": 9, 
        "IP_A": "10.255.200.187", 
        "IP_B": "10.255.200.188", 
        "IP_LOOPBACK": "10.53.243.75", 
        "LOT_ID": 5, 
        "LOT_NAME": "QDC", 
        "NB_NODE": 4, 
        "PAIR": 53, 
        "RING_TYPE": "QDS", 
        "SEQ": 843, 
        "SUBNET_AP": "10.52.105.97"
    }, 
    {
        "ID_MAP": "5SD16", 
        "ID_MAP_A": "VIGER", 
        "ID_MAP_B": "5SD06", 
        "ID_NODE": 0, 
        "ID_RING": 10, 
        "IP_A": "10.255.200.201", 
        "IP_B": "10.255.200.202", 
        "IP_LOOPBACK": "10.53.243.80", 
        "LOT_ID": 5, 
        "LOT_NAME": "QDC", 
        "NB_NODE": 4, 
        "PAIR": 55, 
        "RING_TYPE": "QDS", 
        "SEQ": 848, 
        "SUBNET_AP": "10.52.106.1"
    }, 
    {
        "ID_MAP": "5SD06", 
        "ID_MAP_A": "5SD16", 
        "ID_MAP_B": "5SD09", 
        "ID_NODE": 1, 
        "ID_RING": 10, 
        "IP_A": "10.255.200.203", 
        "IP_B": "10.255.200.204", 
        "IP_LOOPBACK": "10.53.243.81", 
        "LOT_ID": 5, 
        "LOT_NAME": "QDC", 
        "NB_NODE": 4, 
        "PAIR": 55, 
        "RING_TYPE": "QDS", 
        "SEQ": 849, 
        "SUBNET_AP": "10.52.106.33"
    }, 
    {
        "ID_MAP": "5SD09", 
        "ID_MAP_A": "5SD06", 
        "ID_MAP_B": "5SD07", 
        "ID_NODE": 2, 
        "ID_RING": 10, 
        "IP_A": "10.255.200.205", 
        "IP_B": "10.255.200.206", 
        "IP_LOOPBACK": "10.53.243.82", 
        "LOT_ID": 5, 
        "LOT_NAME": "QDC", 
        "NB_NODE": 4, 
        "PAIR": 55, 
        "RING_TYPE": "QDS", 
        "SEQ": 850, 
        "SUBNET_AP": "10.52.106.65"
    }, 
    {
        "ID_MAP": "5SD07", 
        "ID_MAP_A": "5SD09", 
        "ID_MAP_B": "VIGER", 
        "ID_NODE": 3, 
        "ID_RING": 10, 
        "IP_A": "10.255.200.207", 
        "IP_B": "10.255.200.208", 
        "IP_LOOPBACK": "10.53.243.83", 
        "LOT_ID": 5, 
        "LOT_NAME": "QDC", 
        "NB_NODE": 4, 
        "PAIR": 55, 
        "RING_TYPE": "QDS", 
        "SEQ": 851, 
        "SUBNET_AP": "10.52.106.97"
    }, 
    {
        "ID_MAP": "5SA20", 
        "ID_MAP_A": "VIGER", 
        "ID_MAP_B": "5SA14", 
        "ID_NODE": 0, 
        "ID_RING": 11, 
        "IP_A": "10.255.200.221", 
        "IP_B": "10.255.200.222", 
        "IP_LOOPBACK": "10.53.243.88", 
        "LOT_ID": 5, 
        "LOT_NAME": "QDC", 
        "NB_NODE": 6, 
        "PAIR": 57, 
        "RING_TYPE": "QDS", 
        "SEQ": 856, 
        "SUBNET_AP": "10.52.107.1"
    }, 
    {
        "ID_MAP": "5SA14", 
        "ID_MAP_A": "5SA20", 
        "ID_MAP_B": "5SA15", 
        "ID_NODE": 1, 
        "ID_RING": 11, 
        "IP_A": "10.255.200.223", 
        "IP_B": "10.255.200.224", 
        "IP_LOOPBACK": "10.53.243.89", 
        "LOT_ID": 5, 
        "LOT_NAME": "QDC", 
        "NB_NODE": 6, 
        "PAIR": 57, 
        "RING_TYPE": "QDS", 
        "SEQ": 857, 
        "SUBNET_AP": "10.52.107.33"
    }, 
    {
        "ID_MAP": "5SA15", 
        "ID_MAP_A": "5SA14", 
        "ID_MAP_B": "5SA16", 
        "ID_NODE": 2, 
        "ID_RING": 11, 
        "IP_A": "10.255.200.225", 
        "IP_B": "10.255.200.226", 
        "IP_LOOPBACK": "10.53.243.90", 
        "LOT_ID": 5, 
        "LOT_NAME": "QDC", 
        "NB_NODE": 6, 
        "PAIR": 57, 
        "RING_TYPE": "QDS", 
        "SEQ": 858, 
        "SUBNET_AP": "10.52.107.65"
    }, 
    {
        "ID_MAP": "5SA16", 
        "ID_MAP_A": "5SA15", 
        "ID_MAP_B": "5SA18", 
        "ID_NODE": 3, 
        "ID_RING": 11, 
        "IP_A": "10.255.200.227", 
        "IP_B": "10.255.200.228", 
        "IP_LOOPBACK": "10.53.243.91", 
        "LOT_ID": 5, 
        "LOT_NAME": "QDC", 
        "NB_NODE": 6, 
        "PAIR": 57, 
        "RING_TYPE": "QDS", 
        "SEQ": 859, 
        "SUBNET_AP": "10.52.107.97"
    }, 
    {
        "ID_MAP": "5SA18", 
        "ID_MAP_A": "5SA16", 
        "ID_MAP_B": "5SA19", 
        "ID_NODE": 4, 
        "ID_RING": 11, 
        "IP_A": "10.255.200.229", 
        "IP_B": "10.255.200.230", 
        "IP_LOOPBACK": "10.53.243.92", 
        "LOT_ID": 5, 
        "LOT_NAME": "QDC", 
        "NB_NODE": 6, 
        "PAIR": 57, 
        "RING_TYPE": "QDS", 
        "SEQ": 860, 
        "SUBNET_AP": "10.52.107.129"
    }, 
    {
        "ID_MAP": "5SA19", 
        "ID_MAP_A": "5SA18", 
        "ID_MAP_B": "VIGER", 
        "ID_NODE": 5, 
        "ID_RING": 11, 
        "IP_A": "10.255.200.231", 
        "IP_B": "10.255.200.232", 
        "IP_LOOPBACK": "10.53.243.93", 
        "LOT_ID": 5, 
        "LOT_NAME": "QDC", 
        "NB_NODE": 6, 
        "PAIR": 57, 
        "RING_TYPE": "QDS", 
        "SEQ": 861, 
        "SUBNET_AP": "10.52.107.161"
    }, 
    {
        "ID_MAP": "5SA07", 
        "ID_MAP_A": "VIGER", 
        "ID_MAP_B": "5SA08", 
        "ID_NODE": 0, 
        "ID_RING": 12, 
        "IP_A": "10.255.201.1", 
        "IP_B": "10.255.201.2", 
        "IP_LOOPBACK": "10.53.243.96", 
        "LOT_ID": 5, 
        "LOT_NAME": "QDC", 
        "NB_NODE": 6, 
        "PAIR": 59, 
        "RING_TYPE": "QDS", 
        "SEQ": 864, 
        "SUBNET_AP": "10.52.108.1"
    }, 
    {
        "ID_MAP": "5SA08", 
        "ID_MAP_A": "5SA07", 
        "ID_MAP_B": "5SA09", 
        "ID_NODE": 1, 
        "ID_RING": 12, 
        "IP_A": "10.255.201.3", 
        "IP_B": "10.255.201.4", 
        "IP_LOOPBACK": "10.53.243.97", 
        "LOT_ID": 5, 
        "LOT_NAME": "QDC", 
        "NB_NODE": 6, 
        "PAIR": 59, 
        "RING_TYPE": "QDS", 
        "SEQ": 865, 
        "SUBNET_AP": "10.52.108.33"
    }, 
    {
        "ID_MAP": "5SA09", 
        "ID_MAP_A": "5SA08", 
        "ID_MAP_B": "5SA12", 
        "ID_NODE": 2, 
        "ID_RING": 12, 
        "IP_A": "10.255.201.5", 
        "IP_B": "10.255.201.6", 
        "IP_LOOPBACK": "10.53.243.98", 
        "LOT_ID": 5, 
        "LOT_NAME": "QDC", 
        "NB_NODE": 6, 
        "PAIR": 59, 
        "RING_TYPE": "QDS", 
        "SEQ": 866, 
        "SUBNET_AP": "10.52.108.65"
    }, 
    {
        "ID_MAP": "5SA12", 
        "ID_MAP_A": "5SA09", 
        "ID_MAP_B": "5SA04", 
        "ID_NODE": 3, 
        "ID_RING": 12, 
        "IP_A": "10.255.201.7", 
        "IP_B": "10.255.201.8", 
        "IP_LOOPBACK": "10.53.243.99", 
        "LOT_ID": 5, 
        "LOT_NAME": "QDC", 
        "NB_NODE": 6, 
        "PAIR": 59, 
        "RING_TYPE": "QDS", 
        "SEQ": 867, 
        "SUBNET_AP": "10.52.108.97"
    }, 
    {
        "ID_MAP": "5SA04", 
        "ID_MAP_A": "5SA12", 
        "ID_MAP_B": "5SA13", 
        "ID_NODE": 4, 
        "ID_RING": 12, 
        "IP_A": "10.255.201.9", 
        "IP_B": "10.255.201.10", 
        "IP_LOOPBACK": "10.53.243.100", 
        "LOT_ID": 5, 
        "LOT_NAME": "QDC", 
        "NB_NODE": 6, 
        "PAIR": 59, 
        "RING_TYPE": "QDS", 
        "SEQ": 868, 
        "SUBNET_AP": "10.52.108.129"
    }, 
    {
        "ID_MAP": "5SA13", 
        "ID_MAP_A": "5SA04", 
        "ID_MAP_B": "VIGER", 
        "ID_NODE": 5, 
        "ID_RING": 12, 
        "IP_A": "10.255.201.11", 
        "IP_B": "10.255.201.12", 
        "IP_LOOPBACK": "10.53.243.101", 
        "LOT_ID": 5, 
        "LOT_NAME": "QDC", 
        "NB_NODE": 6, 
        "PAIR": 59, 
        "RING_TYPE": "QDS", 
        "SEQ": 869, 
        "SUBNET_AP": "10.52.108.161"
    }, 
    {
        "ID_MAP": "5SA23", 
        "ID_MAP_A": "VIGER", 
        "ID_MAP_B": "5SA10", 
        "ID_NODE": 0, 
        "ID_RING": 13, 
        "IP_A": "10.255.201.21", 
        "IP_B": "10.255.201.22", 
        "IP_LOOPBACK": "10.53.243.104", 
        "LOT_ID": 5, 
        "LOT_NAME": "QDC", 
        "NB_NODE": 6, 
        "PAIR": 73, 
        "RING_TYPE": "QDS", 
        "SEQ": 872, 
        "SUBNET_AP": "10.52.109.1"
    }, 
    {
        "ID_MAP": "5SA10", 
        "ID_MAP_A": "5SA23", 
        "ID_MAP_B": "5SA11", 
        "ID_NODE": 1, 
        "ID_RING": 13, 
        "IP_A": "10.255.201.23", 
        "IP_B": "10.255.201.24", 
        "IP_LOOPBACK": "10.53.243.105", 
        "LOT_ID": 5, 
        "LOT_NAME": "QDC", 
        "NB_NODE": 6, 
        "PAIR": 73, 
        "RING_TYPE": "QDS", 
        "SEQ": 873, 
        "SUBNET_AP": "10.52.109.33"
    }, 
    {
        "ID_MAP": "5SA11", 
        "ID_MAP_A": "5SA10", 
        "ID_MAP_B": "5SA05", 
        "ID_NODE": 2, 
        "ID_RING": 13, 
        "IP_A": "10.255.201.25", 
        "IP_B": "10.255.201.26", 
        "IP_LOOPBACK": "10.53.243.106", 
        "LOT_ID": 5, 
        "LOT_NAME": "QDC", 
        "NB_NODE": 6, 
        "PAIR": 73, 
        "RING_TYPE": "QDS", 
        "SEQ": 874, 
        "SUBNET_AP": "10.52.109.65"
    }, 
    {
        "ID_MAP": "5SA05", 
        "ID_MAP_A": "5SA11", 
        "ID_MAP_B": "5SA06", 
        "ID_NODE": 3, 
        "ID_RING": 13, 
        "IP_A": "10.255.201.27", 
        "IP_B": "10.255.201.28", 
        "IP_LOOPBACK": "10.53.243.107", 
        "LOT_ID": 5, 
        "LOT_NAME": "QDC", 
        "NB_NODE": 6, 
        "PAIR": 73, 
        "RING_TYPE": "QDS", 
        "SEQ": 875, 
        "SUBNET_AP": "10.52.109.97"
    }, 
    {
        "ID_MAP": "5SA06", 
        "ID_MAP_A": "5SA05", 
        "ID_MAP_B": "5SA17", 
        "ID_NODE": 4, 
        "ID_RING": 13, 
        "IP_A": "10.255.201.29", 
        "IP_B": "10.255.201.30", 
        "IP_LOOPBACK": "10.53.243.108", 
        "LOT_ID": 5, 
        "LOT_NAME": "QDC", 
        "NB_NODE": 6, 
        "PAIR": 73, 
        "RING_TYPE": "QDS", 
        "SEQ": 876, 
        "SUBNET_AP": "10.52.109.129"
    }, 
    {
        "ID_MAP": "5SA17", 
        "ID_MAP_A": "5SA06", 
        "ID_MAP_B": "VIGER", 
        "ID_NODE": 5, 
        "ID_RING": 13, 
        "IP_A": "10.255.201.31", 
        "IP_B": "10.255.201.32", 
        "IP_LOOPBACK": "10.53.243.109", 
        "LOT_ID": 5, 
        "LOT_NAME": "QDC", 
        "NB_NODE": 6, 
        "PAIR": 73, 
        "RING_TYPE": "QDS", 
        "SEQ": 877, 
        "SUBNET_AP": "10.52.109.161"
    }, 
    {
        "ID_MAP": "5SA21", 
        "ID_MAP_A": "VIGER", 
        "ID_MAP_B": "5SA22", 
        "ID_NODE": 0, 
        "ID_RING": 14, 
        "IP_A": "10.255.201.41", 
        "IP_B": "10.255.201.42", 
        "IP_LOOPBACK": "10.53.243.112", 
        "LOT_ID": 5, 
        "LOT_NAME": "QDC", 
        "NB_NODE": 6, 
        "PAIR": 75, 
        "RING_TYPE": "QDS", 
        "SEQ": 880, 
        "SUBNET_AP": "10.52.110.1"
    }, 
    {
        "ID_MAP": "5SA22", 
        "ID_MAP_A": "5SA21", 
        "ID_MAP_B": "5SA24", 
        "ID_NODE": 1, 
        "ID_RING": 14, 
        "IP_A": "10.255.201.43", 
        "IP_B": "10.255.201.44", 
        "IP_LOOPBACK": "10.53.243.113", 
        "LOT_ID": 5, 
        "LOT_NAME": "QDC", 
        "NB_NODE": 6, 
        "PAIR": 75, 
        "RING_TYPE": "QDS", 
        "SEQ": 881, 
        "SUBNET_AP": "10.52.110.33"
    }, 
    {
        "ID_MAP": "5SA24", 
        "ID_MAP_A": "5SA22", 
        "ID_MAP_B": "5SA02", 
        "ID_NODE": 2, 
        "ID_RING": 14, 
        "IP_A": "10.255.201.45", 
        "IP_B": "10.255.201.46", 
        "IP_LOOPBACK": "10.53.243.114", 
        "LOT_ID": 5, 
        "LOT_NAME": "QDC", 
        "NB_NODE": 6, 
        "PAIR": 75, 
        "RING_TYPE": "QDS", 
        "SEQ": 882, 
        "SUBNET_AP": "10.52.110.65"
    }, 
    {
        "ID_MAP": "5SA02", 
        "ID_MAP_A": "5SA24", 
        "ID_MAP_B": "5SA03", 
        "ID_NODE": 3, 
        "ID_RING": 14, 
        "IP_A": "10.255.201.47", 
        "IP_B": "10.255.201.48", 
        "IP_LOOPBACK": "10.53.243.115", 
        "LOT_ID": 5, 
        "LOT_NAME": "QDC", 
        "NB_NODE": 6, 
        "PAIR": 75, 
        "RING_TYPE": "QDS", 
        "SEQ": 883, 
        "SUBNET_AP": "10.52.110.97"
    }, 
    {
        "ID_MAP": "5SA03", 
        "ID_MAP_A": "5SA02", 
        "ID_MAP_B": "5SA01", 
        "ID_NODE": 4, 
        "ID_RING": 14, 
        "IP_A": "10.255.201.49", 
        "IP_B": "10.255.201.50", 
        "IP_LOOPBACK": "10.53.243.116", 
        "LOT_ID": 5, 
        "LOT_NAME": "QDC", 
        "NB_NODE": 6, 
        "PAIR": 75, 
        "RING_TYPE": "QDS", 
        "SEQ": 884, 
        "SUBNET_AP": "10.52.110.129"
    }, 
    {
        "ID_MAP": "5SA01", 
        "ID_MAP_A": "5SA03", 
        "ID_MAP_B": "VIGER", 
        "ID_NODE": 5, 
        "ID_RING": 14, 
        "IP_A": "10.255.201.51", 
        "IP_B": "10.255.201.52", 
        "IP_LOOPBACK": "10.53.243.117", 
        "LOT_ID": 5, 
        "LOT_NAME": "QDC", 
        "NB_NODE": 6, 
        "PAIR": 75, 
        "RING_TYPE": "QDS", 
        "SEQ": 885, 
        "SUBNET_AP": "10.52.110.161"
    }, 
    {
        "ID_MAP": "5JA01", 
        "ID_MAP_A": "VIGER", 
        "ID_MAP_B": "5JA02", 
        "ID_NODE": 0, 
        "ID_RING": 15, 
        "IP_A": "10.255.201.61", 
        "IP_B": "10.255.201.62", 
        "IP_LOOPBACK": "10.53.243.120", 
        "LOT_ID": 5, 
        "LOT_NAME": "QDC", 
        "NB_NODE": 6, 
        "PAIR": 39, 
        "RING_TYPE": "VILLE", 
        "SEQ": 888, 
        "SUBNET_AP": "10.52.111.1"
    }, 
    {
        "ID_MAP": "5JA02", 
        "ID_MAP_A": "5JA01", 
        "ID_MAP_B": "5JA03", 
        "ID_NODE": 1, 
        "ID_RING": 15, 
        "IP_A": "10.255.201.63", 
        "IP_B": "10.255.201.64", 
        "IP_LOOPBACK": "10.53.243.121", 
        "LOT_ID": 5, 
        "LOT_NAME": "QDC", 
        "NB_NODE": 6, 
        "PAIR": 39, 
        "RING_TYPE": "VILLE", 
        "SEQ": 889, 
        "SUBNET_AP": "10.52.111.33"
    }, 
    {
        "ID_MAP": "5JA03", 
        "ID_MAP_A": "5JA02", 
        "ID_MAP_B": "5JA04", 
        "ID_NODE": 2, 
        "ID_RING": 15, 
        "IP_A": "10.255.201.65", 
        "IP_B": "10.255.201.66", 
        "IP_LOOPBACK": "10.53.243.122", 
        "LOT_ID": 5, 
        "LOT_NAME": "QDC", 
        "NB_NODE": 6, 
        "PAIR": 39, 
        "RING_TYPE": "VILLE", 
        "SEQ": 890, 
        "SUBNET_AP": "10.52.111.65"
    }, 
    {
        "ID_MAP": "5JA04", 
        "ID_MAP_A": "5JA03", 
        "ID_MAP_B": "5JA05", 
        "ID_NODE": 3, 
        "ID_RING": 15, 
        "IP_A": "10.255.201.67", 
        "IP_B": "10.255.201.68", 
        "IP_LOOPBACK": "10.53.243.123", 
        "LOT_ID": 5, 
        "LOT_NAME": "QDC", 
        "NB_NODE": 6, 
        "PAIR": 39, 
        "RING_TYPE": "VILLE", 
        "SEQ": 891, 
        "SUBNET_AP": "10.52.111.97"
    }, 
    {
        "ID_MAP": "5JA06", 
        "ID_MAP_A": "5JA04", 
        "ID_MAP_B": "5JA06", 
        "ID_NODE": 4, 
        "ID_RING": 15, 
        "IP_A": "10.255.201.69", 
        "IP_B": "10.255.201.70", 
        "IP_LOOPBACK": "10.53.243.124", 
        "LOT_ID": 5, 
        "LOT_NAME": "QDC", 
        "NB_NODE": 6, 
        "PAIR": 39, 
        "RING_TYPE": "VILLE", 
        "SEQ": 892, 
        "SUBNET_AP": "10.52.111.129"
    }, 
    {
        "ID_MAP": "5JA05", 
        "ID_MAP_A": "5JA05", 
        "ID_MAP_B": "VIGER", 
        "ID_NODE": 5, 
        "ID_RING": 15, 
        "IP_A": "10.255.201.71", 
        "IP_B": "10.255.201.72", 
        "IP_LOOPBACK": "10.53.243.125", 
        "LOT_ID": 5, 
        "LOT_NAME": "QDC", 
        "NB_NODE": 6, 
        "PAIR": 39, 
        "RING_TYPE": "VILLE", 
        "SEQ": 893, 
        "SUBNET_AP": "10.52.111.161"
    }, 
    {
        "ID_MAP": "4VA31", 
        "ID_MAP_A": "VIGER", 
        "ID_MAP_B": "4VA32", 
        "ID_NODE": 0, 
        "ID_RING": 0, 
        "IP_A": "10.255.198.1", 
        "IP_B": "10.255.198.2", 
        "IP_LOOPBACK": "10.53.242.64", 
        "LOT_ID": 4, 
        "LOT_NAME": "VIEUX", 
        "NB_NODE": 5, 
        "PAIR": 37, 
        "RING_TYPE": "VILLE", 
        "SEQ": 576, 
        "SUBNET_AP": "10.52.72.1"
    }, 
    {
        "ID_MAP": "4VA32", 
        "ID_MAP_A": "4VA31", 
        "ID_MAP_B": "4VA34", 
        "ID_NODE": 1, 
        "ID_RING": 0, 
        "IP_A": "10.255.198.3", 
        "IP_B": "10.255.198.4", 
        "IP_LOOPBACK": "10.53.242.65", 
        "LOT_ID": 4, 
        "LOT_NAME": "VIEUX", 
        "NB_NODE": 5, 
        "PAIR": 37, 
        "RING_TYPE": "VILLE", 
        "SEQ": 577, 
        "SUBNET_AP": "10.52.72.33"
    }, 
    {
        "ID_MAP": "4VA34", 
        "ID_MAP_A": "4VA32", 
        "ID_MAP_B": "4VA01", 
        "ID_NODE": 2, 
        "ID_RING": 0, 
        "IP_A": "10.255.198.5", 
        "IP_B": "10.255.198.6", 
        "IP_LOOPBACK": "10.53.242.66", 
        "LOT_ID": 4, 
        "LOT_NAME": "VIEUX", 
        "NB_NODE": 5, 
        "PAIR": 37, 
        "RING_TYPE": "VILLE", 
        "SEQ": 578, 
        "SUBNET_AP": "10.52.72.65"
    }, 
    {
        "ID_MAP": "4VA01", 
        "ID_MAP_A": "4VA34", 
        "ID_MAP_B": "4VA30", 
        "ID_NODE": 3, 
        "ID_RING": 0, 
        "IP_A": "10.255.198.7", 
        "IP_B": "10.255.198.8", 
        "IP_LOOPBACK": "10.53.242.67", 
        "LOT_ID": 4, 
        "LOT_NAME": "VIEUX", 
        "NB_NODE": 5, 
        "PAIR": 37, 
        "RING_TYPE": "VILLE", 
        "SEQ": 579, 
        "SUBNET_AP": "10.52.72.97"
    }, 
    {
        "ID_MAP": "4VA30", 
        "ID_MAP_A": "4VA01", 
        "ID_MAP_B": "VIGER", 
        "ID_NODE": 4, 
        "ID_RING": 0, 
        "IP_A": "10.255.198.9", 
        "IP_B": "10.255.198.10", 
        "IP_LOOPBACK": "10.53.242.68", 
        "LOT_ID": 4, 
        "LOT_NAME": "VIEUX", 
        "NB_NODE": 5, 
        "PAIR": 37, 
        "RING_TYPE": "VILLE", 
        "SEQ": 580, 
        "SUBNET_AP": "10.52.72.129"
    }, 
    {
        "ID_MAP": "4VA26", 
        "ID_MAP_A": "VIGER", 
        "ID_MAP_B": "4VA27", 
        "ID_NODE": 0, 
        "ID_RING": 1, 
        "IP_A": "10.255.198.21", 
        "IP_B": "10.255.198.22", 
        "IP_LOOPBACK": "10.53.242.72", 
        "LOT_ID": 4, 
        "LOT_NAME": "VIEUX", 
        "NB_NODE": 5, 
        "PAIR": 39, 
        "RING_TYPE": "VILLE", 
        "SEQ": 584, 
        "SUBNET_AP": "10.52.73.1"
    }, 
    {
        "ID_MAP": "4VA27", 
        "ID_MAP_A": "4VA26", 
        "ID_MAP_B": "4VA29", 
        "ID_NODE": 1, 
        "ID_RING": 1, 
        "IP_A": "10.255.198.23", 
        "IP_B": "10.255.198.24", 
        "IP_LOOPBACK": "10.53.242.73", 
        "LOT_ID": 4, 
        "LOT_NAME": "VIEUX", 
        "NB_NODE": 5, 
        "PAIR": 39, 
        "RING_TYPE": "VILLE", 
        "SEQ": 585, 
        "SUBNET_AP": "10.52.73.33"
    }, 
    {
        "ID_MAP": "4VA29", 
        "ID_MAP_A": "4VA27", 
        "ID_MAP_B": "4VA33", 
        "ID_NODE": 2, 
        "ID_RING": 1, 
        "IP_A": "10.255.198.25", 
        "IP_B": "10.255.198.26", 
        "IP_LOOPBACK": "10.53.242.74", 
        "LOT_ID": 4, 
        "LOT_NAME": "VIEUX", 
        "NB_NODE": 5, 
        "PAIR": 39, 
        "RING_TYPE": "VILLE", 
        "SEQ": 586, 
        "SUBNET_AP": "10.52.73.65"
    }, 
    {
        "ID_MAP": "4VA33", 
        "ID_MAP_A": "4VA29", 
        "ID_MAP_B": "4VA02", 
        "ID_NODE": 3, 
        "ID_RING": 1, 
        "IP_A": "10.255.198.27", 
        "IP_B": "10.255.198.28", 
        "IP_LOOPBACK": "10.53.242.75", 
        "LOT_ID": 4, 
        "LOT_NAME": "VIEUX", 
        "NB_NODE": 5, 
        "PAIR": 39, 
        "RING_TYPE": "VILLE", 
        "SEQ": 587, 
        "SUBNET_AP": "10.52.73.97"
    }, 
    {
        "ID_MAP": "4VA02", 
        "ID_MAP_A": "4VA33", 
        "ID_MAP_B": "VIGER", 
        "ID_NODE": 4, 
        "ID_RING": 1, 
        "IP_A": "10.255.198.29", 
        "IP_B": "10.255.198.30", 
        "IP_LOOPBACK": "10.53.242.76", 
        "LOT_ID": 4, 
        "LOT_NAME": "VIEUX", 
        "NB_NODE": 5, 
        "PAIR": 39, 
        "RING_TYPE": "VILLE", 
        "SEQ": 588, 
        "SUBNET_AP": "10.52.73.129"
    }, 
    {
        "ID_MAP": "4VA19", 
        "ID_MAP_A": "VIGER", 
        "ID_MAP_B": "4VA24", 
        "ID_NODE": 0, 
        "ID_RING": 2, 
        "IP_A": "10.255.198.41", 
        "IP_B": "10.255.198.42", 
        "IP_LOOPBACK": "10.53.242.80", 
        "LOT_ID": 4, 
        "LOT_NAME": "VIEUX", 
        "NB_NODE": 4, 
        "PAIR": 41, 
        "RING_TYPE": "VILLE", 
        "SEQ": 592, 
        "SUBNET_AP": "10.52.74.1"
    }, 
    {
        "ID_MAP": "4VA24", 
        "ID_MAP_A": "4VA19", 
        "ID_MAP_B": "5VA25", 
        "ID_NODE": 1, 
        "ID_RING": 2, 
        "IP_A": "10.255.198.43", 
        "IP_B": "10.255.198.44", 
        "IP_LOOPBACK": "10.53.242.81", 
        "LOT_ID": 4, 
        "LOT_NAME": "VIEUX", 
        "NB_NODE": 4, 
        "PAIR": 41, 
        "RING_TYPE": "VILLE", 
        "SEQ": 593, 
        "SUBNET_AP": "10.52.74.33"
    }, 
    {
        "ID_MAP": "4VA25", 
        "ID_MAP_A": "4VA24", 
        "ID_MAP_B": "4VA03", 
        "ID_NODE": 2, 
        "ID_RING": 2, 
        "IP_A": "10.255.198.45", 
        "IP_B": "10.255.198.46", 
        "IP_LOOPBACK": "10.53.242.82", 
        "LOT_ID": 4, 
        "LOT_NAME": "VIEUX", 
        "NB_NODE": 4, 
        "PAIR": 41, 
        "RING_TYPE": "VILLE", 
        "SEQ": 594, 
        "SUBNET_AP": "10.52.74.65"
    }, 
    {
        "ID_MAP": "4VA03", 
        "ID_MAP_A": "5VA25", 
        "ID_MAP_B": "VIGER", 
        "ID_NODE": 3, 
        "ID_RING": 2, 
        "IP_A": "10.255.198.47", 
        "IP_B": "10.255.198.48", 
        "IP_LOOPBACK": "10.53.242.83", 
        "LOT_ID": 4, 
        "LOT_NAME": "VIEUX", 
        "NB_NODE": 4, 
        "PAIR": 41, 
        "RING_TYPE": "VILLE", 
        "SEQ": 595, 
        "SUBNET_AP": "10.52.74.97"
    }, 
    {
        "ID_MAP": "4VA21", 
        "ID_MAP_A": "VIGER", 
        "ID_MAP_B": "4VA20", 
        "ID_NODE": 0, 
        "ID_RING": 3, 
        "IP_A": "10.255.198.61", 
        "IP_B": "10.255.198.62", 
        "IP_LOOPBACK": "10.53.242.88", 
        "LOT_ID": 4, 
        "LOT_NAME": "VIEUX", 
        "NB_NODE": 5, 
        "PAIR": 43, 
        "RING_TYPE": "VILLE", 
        "SEQ": 600, 
        "SUBNET_AP": "10.52.75.1"
    }, 
    {
        "ID_MAP": "4VA20", 
        "ID_MAP_A": "4VA21", 
        "ID_MAP_B": "4VA22", 
        "ID_NODE": 1, 
        "ID_RING": 3, 
        "IP_A": "10.255.198.63", 
        "IP_B": "10.255.198.64", 
        "IP_LOOPBACK": "10.53.242.89", 
        "LOT_ID": 4, 
        "LOT_NAME": "VIEUX", 
        "NB_NODE": 5, 
        "PAIR": 43, 
        "RING_TYPE": "VILLE", 
        "SEQ": 601, 
        "SUBNET_AP": "10.52.75.33"
    }, 
    {
        "ID_MAP": "4VA22", 
        "ID_MAP_A": "4VA20", 
        "ID_MAP_B": "4VA23", 
        "ID_NODE": 2, 
        "ID_RING": 3, 
        "IP_A": "10.255.198.65", 
        "IP_B": "10.255.198.66", 
        "IP_LOOPBACK": "10.53.242.90", 
        "LOT_ID": 4, 
        "LOT_NAME": "VIEUX", 
        "NB_NODE": 5, 
        "PAIR": 43, 
        "RING_TYPE": "VILLE", 
        "SEQ": 602, 
        "SUBNET_AP": "10.52.75.65"
    }, 
    {
        "ID_MAP": "4VA23", 
        "ID_MAP_A": "4VA22", 
        "ID_MAP_B": "4VA04", 
        "ID_NODE": 3, 
        "ID_RING": 3, 
        "IP_A": "10.255.198.67", 
        "IP_B": "10.255.198.68", 
        "IP_LOOPBACK": "10.53.242.91", 
        "LOT_ID": 4, 
        "LOT_NAME": "VIEUX", 
        "NB_NODE": 5, 
        "PAIR": 43, 
        "RING_TYPE": "VILLE", 
        "SEQ": 603, 
        "SUBNET_AP": "10.52.75.97"
    }, 
    {
        "ID_MAP": "4VA04", 
        "ID_MAP_A": "4VA23", 
        "ID_MAP_B": "VIGER", 
        "ID_NODE": 4, 
        "ID_RING": 3, 
        "IP_A": "10.255.198.69", 
        "IP_B": "10.255.198.70", 
        "IP_LOOPBACK": "10.53.242.92", 
        "LOT_ID": 4, 
        "LOT_NAME": "VIEUX", 
        "NB_NODE": 5, 
        "PAIR": 43, 
        "RING_TYPE": "VILLE", 
        "SEQ": 604, 
        "SUBNET_AP": "10.52.75.129"
    }, 
    {
        "ID_MAP": "4VA35", 
        "ID_MAP_A": "VIGER", 
        "ID_MAP_B": "4VA08", 
        "ID_NODE": 0, 
        "ID_RING": 4, 
        "IP_A": "10.255.198.81", 
        "IP_B": "10.255.198.82", 
        "IP_LOOPBACK": "10.53.242.96", 
        "LOT_ID": 4, 
        "LOT_NAME": "VIEUX", 
        "NB_NODE": 5, 
        "PAIR": 45, 
        "RING_TYPE": "VILLE", 
        "SEQ": 608, 
        "SUBNET_AP": "10.52.76.1"
    }, 
    {
        "ID_MAP": "4VA08", 
        "ID_MAP_A": "4VA35", 
        "ID_MAP_B": "4VA18", 
        "ID_NODE": 1, 
        "ID_RING": 4, 
        "IP_A": "10.255.198.83", 
        "IP_B": "10.255.198.84", 
        "IP_LOOPBACK": "10.53.242.97", 
        "LOT_ID": 4, 
        "LOT_NAME": "VIEUX", 
        "NB_NODE": 5, 
        "PAIR": 45, 
        "RING_TYPE": "VILLE", 
        "SEQ": 609, 
        "SUBNET_AP": "10.52.76.33"
    }, 
    {
        "ID_MAP": "4VA18", 
        "ID_MAP_A": "4VA08", 
        "ID_MAP_B": "4VA05", 
        "ID_NODE": 2, 
        "ID_RING": 4, 
        "IP_A": "10.255.198.85", 
        "IP_B": "10.255.198.86", 
        "IP_LOOPBACK": "10.53.242.98", 
        "LOT_ID": 4, 
        "LOT_NAME": "VIEUX", 
        "NB_NODE": 5, 
        "PAIR": 45, 
        "RING_TYPE": "VILLE", 
        "SEQ": 610, 
        "SUBNET_AP": "10.52.76.65"
    }, 
    {
        "ID_MAP": "4VA05", 
        "ID_MAP_A": "4VA18", 
        "ID_MAP_B": "VIGER", 
        "ID_NODE": 3, 
        "ID_RING": 4, 
        "IP_A": "10.255.198.87", 
        "IP_B": "10.255.198.88", 
        "IP_LOOPBACK": "10.53.242.99", 
        "LOT_ID": 4, 
        "LOT_NAME": "VIEUX", 
        "NB_NODE": 5, 
        "PAIR": 45, 
        "RING_TYPE": "VILLE", 
        "SEQ": 611, 
        "SUBNET_AP": "10.52.76.97"
    }, 
    {
        "ID_MAP": "4VA28", 
        "ID_MAP_A": "VIGER", 
        "ID_MAP_B": "4VA37", 
        "ID_NODE": 0, 
        "ID_RING": 5, 
        "IP_A": "10.255.198.101", 
        "IP_B": "10.255.198.102", 
        "IP_LOOPBACK": "10.53.242.104", 
        "LOT_ID": 4, 
        "LOT_NAME": "VIEUX", 
        "NB_NODE": 4, 
        "PAIR": 47, 
        "RING_TYPE": "VILLE", 
        "SEQ": 616, 
        "SUBNET_AP": "10.52.77.1"
    }, 
    {
        "ID_MAP": "4VA37", 
        "ID_MAP_A": "4VA28", 
        "ID_MAP_B": "4VA12", 
        "ID_NODE": 1, 
        "ID_RING": 5, 
        "IP_A": "10.255.198.103", 
        "IP_B": "10.255.198.104", 
        "IP_LOOPBACK": "10.53.242.105", 
        "LOT_ID": 4, 
        "LOT_NAME": "VIEUX", 
        "NB_NODE": 4, 
        "PAIR": 47, 
        "RING_TYPE": "VILLE", 
        "SEQ": 617, 
        "SUBNET_AP": "10.52.77.33"
    }, 
    {
        "ID_MAP": "4VA12", 
        "ID_MAP_A": "4VA37", 
        "ID_MAP_B": "4VA15", 
        "ID_NODE": 2, 
        "ID_RING": 5, 
        "IP_A": "10.255.198.105", 
        "IP_B": "10.255.198.106", 
        "IP_LOOPBACK": "10.53.242.106", 
        "LOT_ID": 4, 
        "LOT_NAME": "VIEUX", 
        "NB_NODE": 4, 
        "PAIR": 47, 
        "RING_TYPE": "VILLE", 
        "SEQ": 618, 
        "SUBNET_AP": "10.52.77.65"
    }, 
    {
        "ID_MAP": "4VA15", 
        "ID_MAP_A": "4VA12", 
        "ID_MAP_B": "VIGER", 
        "ID_NODE": 3, 
        "ID_RING": 5, 
        "IP_A": "10.255.198.107", 
        "IP_B": "10.255.198.108", 
        "IP_LOOPBACK": "10.53.242.107", 
        "LOT_ID": 4, 
        "LOT_NAME": "VIEUX", 
        "NB_NODE": 4, 
        "PAIR": 47, 
        "RING_TYPE": "VILLE", 
        "SEQ": 619, 
        "SUBNET_AP": "10.52.77.97"
    }, 
    {
        "ID_MAP": "4VA06", 
        "ID_MAP_A": "VIGER", 
        "ID_MAP_B": "4VA36", 
        "ID_NODE": 0, 
        "ID_RING": 6, 
        "IP_A": "10.255.198.121", 
        "IP_B": "10.255.198.122", 
        "IP_LOOPBACK": "10.53.242.112", 
        "LOT_ID": 4, 
        "LOT_NAME": "VIEUX", 
        "NB_NODE": 5, 
        "PAIR": 49, 
        "RING_TYPE": "VILLE", 
        "SEQ": 624, 
        "SUBNET_AP": "10.52.78.1"
    }, 
    {
        "ID_MAP": "4VA36", 
        "ID_MAP_A": "4VA06", 
        "ID_MAP_B": "4VA38", 
        "ID_NODE": 1, 
        "ID_RING": 6, 
        "IP_A": "10.255.198.123", 
        "IP_B": "10.255.198.124", 
        "IP_LOOPBACK": "10.53.242.113", 
        "LOT_ID": 4, 
        "LOT_NAME": "VIEUX", 
        "NB_NODE": 5, 
        "PAIR": 49, 
        "RING_TYPE": "VILLE", 
        "SEQ": 625, 
        "SUBNET_AP": "10.52.78.33"
    }, 
    {
        "ID_MAP": "4VA38", 
        "ID_MAP_A": "4VA36", 
        "ID_MAP_B": "4VA13", 
        "ID_NODE": 2, 
        "ID_RING": 6, 
        "IP_A": "10.255.198.125", 
        "IP_B": "10.255.198.126", 
        "IP_LOOPBACK": "10.53.242.114", 
        "LOT_ID": 4, 
        "LOT_NAME": "VIEUX", 
        "NB_NODE": 5, 
        "PAIR": 49, 
        "RING_TYPE": "VILLE", 
        "SEQ": 626, 
        "SUBNET_AP": "10.52.78.65"
    }, 
    {
        "ID_MAP": "4VA13", 
        "ID_MAP_A": "4VA38", 
        "ID_MAP_B": "4VA16", 
        "ID_NODE": 3, 
        "ID_RING": 6, 
        "IP_A": "10.255.198.127", 
        "IP_B": "10.255.198.128", 
        "IP_LOOPBACK": "10.53.242.115", 
        "LOT_ID": 4, 
        "LOT_NAME": "VIEUX", 
        "NB_NODE": 5, 
        "PAIR": 49, 
        "RING_TYPE": "VILLE", 
        "SEQ": 627, 
        "SUBNET_AP": "10.52.78.97"
    }, 
    {
        "ID_MAP": "4VA16", 
        "ID_MAP_A": "4VA13", 
        "ID_MAP_B": "VIGER", 
        "ID_NODE": 4, 
        "ID_RING": 6, 
        "IP_A": "10.255.198.129", 
        "IP_B": "10.255.198.130", 
        "IP_LOOPBACK": "10.53.242.116", 
        "LOT_ID": 4, 
        "LOT_NAME": "VIEUX", 
        "NB_NODE": 5, 
        "PAIR": 49, 
        "RING_TYPE": "VILLE", 
        "SEQ": 628, 
        "SUBNET_AP": "10.52.78.129"
    }, 
    {
        "ID_MAP": "4VA07", 
        "ID_MAP_A": "VIGER", 
        "ID_MAP_B": "4VA10", 
        "ID_NODE": 0, 
        "ID_RING": 7, 
        "IP_A": "10.255.198.141", 
        "IP_B": "10.255.198.142", 
        "IP_LOOPBACK": "10.53.242.120", 
        "LOT_ID": 4, 
        "LOT_NAME": "VIEUX", 
        "NB_NODE": 5, 
        "PAIR": 51, 
        "RING_TYPE": "VILLE", 
        "SEQ": 632, 
        "SUBNET_AP": "10.52.79.1"
    }, 
    {
        "ID_MAP": "4VA10", 
        "ID_MAP_A": "4VA07", 
        "ID_MAP_B": "4VA11", 
        "ID_NODE": 1, 
        "ID_RING": 7, 
        "IP_A": "10.255.198.143", 
        "IP_B": "10.255.198.144", 
        "IP_LOOPBACK": "10.53.242.121", 
        "LOT_ID": 4, 
        "LOT_NAME": "VIEUX", 
        "NB_NODE": 5, 
        "PAIR": 51, 
        "RING_TYPE": "VILLE", 
        "SEQ": 633, 
        "SUBNET_AP": "10.52.79.33"
    }, 
    {
        "ID_MAP": "4VA11", 
        "ID_MAP_A": "4VA10", 
        "ID_MAP_B": "4VA14", 
        "ID_NODE": 2, 
        "ID_RING": 7, 
        "IP_A": "10.255.198.145", 
        "IP_B": "10.255.198.146", 
        "IP_LOOPBACK": "10.53.242.122", 
        "LOT_ID": 4, 
        "LOT_NAME": "VIEUX", 
        "NB_NODE": 5, 
        "PAIR": 51, 
        "RING_TYPE": "VILLE", 
        "SEQ": 634, 
        "SUBNET_AP": "10.52.79.65"
    }, 
    {
        "ID_MAP": "4VA14", 
        "ID_MAP_A": "4VA11", 
        "ID_MAP_B": "4VA17", 
        "ID_NODE": 3, 
        "ID_RING": 7, 
        "IP_A": "10.255.198.147", 
        "IP_B": "10.255.198.148", 
        "IP_LOOPBACK": "10.53.242.123", 
        "LOT_ID": 4, 
        "LOT_NAME": "VIEUX", 
        "NB_NODE": 5, 
        "PAIR": 51, 
        "RING_TYPE": "VILLE", 
        "SEQ": 635, 
        "SUBNET_AP": "10.52.79.97"
    }, 
    {
        "ID_MAP": "4VA17", 
        "ID_MAP_A": "4VA14", 
        "ID_MAP_B": "VIGER", 
        "ID_NODE": 4, 
        "ID_RING": 7, 
        "IP_A": "10.255.198.149", 
        "IP_B": "10.255.198.150", 
        "IP_LOOPBACK": "10.53.242.124", 
        "LOT_ID": 4, 
        "LOT_NAME": "VIEUX", 
        "NB_NODE": 5, 
        "PAIR": 51, 
        "RING_TYPE": "VILLE", 
        "SEQ": 636, 
        "SUBNET_AP": "10.52.79.129"
    }
]