[
    {
        "ID_NODE": 0, 
        "GigabitEthernet2/0/1": "10.255.200.89", 
        "LOT_NAME": "QDC", 
        "GigabitEthernet1/0/1": "10.255.200.80", 
        "NB_NODE": 5, 
        "ID_RING": 4, 
        "RING_TYPE": "VILLE", 
        "PAIR": 33, 
        "LOT_ID": 5
    }, 
    {
        "GigabitEthernet2/0/2": "10.255.200.11", 
        "ID_NODE": 0, 
        "LOT_NAME": "QDC", 
        "GigabitEthernet1/0/2": "10.255.200.0", 
        "NB_NODE": 6, 
        "ID_RING": 0, 
        "RING_TYPE": "VILLE", 
        "PAIR": 25, 
        "LOT_ID": 5
    }, 
    {
        "ID_NODE": 0, 
        "GigabitEthernet2/0/3": "10.255.200.33", 
        "LOT_NAME": "QDC", 
        "NB_NODE": 7, 
        "GigabitEthernet1/0/3": "10.255.200.20", 
        "ID_RING": 1, 
        "RING_TYPE": "VILLE", 
        "PAIR": 27, 
        "LOT_ID": 5
    }, 
    {
        "ID_NODE": 0, 
        "GigabitEthernet2/0/4": "10.255.200.53", 
        "LOT_NAME": "QDC", 
        "NB_NODE": 7, 
        "ID_RING": 2, 
        "RING_TYPE": "VILLE", 
        "GigabitEthernet1/0/4": "10.255.200.40", 
        "PAIR": 29, 
        "LOT_ID": 5
    }, 
    {
        "ID_NODE": 0, 
        "GigabitEthernet2/0/5": "10.255.200.73", 
        "LOT_NAME": "QDC", 
        "GigabitEthernet1/0/5": "10.255.200.60", 
        "NB_NODE": 7, 
        "ID_RING": 3, 
        "RING_TYPE": "VILLE", 
        "PAIR": 31, 
        "LOT_ID": 5
    }, 
    {
        "ID_NODE": 0, 
        "GigabitEthernet2/0/6": "10.255.200.107", 
        "LOT_NAME": "QDC", 
        "NB_NODE": 4, 
        "ID_RING": 5, 
        "RING_TYPE": "VILLE", 
        "GigabitEthernet1/0/6": "10.255.200.100", 
        "PAIR": 35, 
        "LOT_ID": 5
    }, 
    {
        "ID_NODE": 0, 
        "GigabitEthernet2/0/7": "10.255.200.127", 
        "LOT_NAME": "QDC", 
        "NB_NODE": 4, 
        "ID_RING": 6, 
        "RING_TYPE": "VILLE", 
        "GigabitEthernet1/0/7": "10.255.200.120", 
        "PAIR": 37, 
        "LOT_ID": 5
    }, 
    {
        "ID_NODE": 0, 
        "LOT_NAME": "QDC", 
        "GigabitEthernet2/0/8": "10.255.200.151", 
        "NB_NODE": 6, 
        "ID_RING": 7, 
        "RING_TYPE": "QDS", 
        "GigabitEthernet1/0/8": "10.255.200.140", 
        "PAIR": 49, 
        "LOT_ID": 5
    }, 
    {
        "ID_NODE": 0, 
        "GigabitEthernet1/0/9": "10.255.200.160", 
        "LOT_NAME": "QDC", 
        "GigabitEthernet2/0/9": "10.255.200.171", 
        "NB_NODE": 6, 
        "ID_RING": 8, 
        "RING_TYPE": "QDS", 
        "PAIR": 51, 
        "LOT_ID": 5
    }, 
    {
        "GigabitEthernet2/0/10": "10.255.200.187", 
        "ID_NODE": 0, 
        "LOT_NAME": "QDC", 
        "NB_NODE": 4, 
        "ID_RING": 9, 
        "RING_TYPE": "QDS", 
        "GigabitEthernet1/0/10": "10.255.200.180", 
        "PAIR": 53, 
        "LOT_ID": 5
    }, 
    {
        "ID_NODE": 0, 
        "GigabitEthernet2/0/11": "10.255.200.207", 
        "GigabitEthernet1/0/11": "10.255.200.200", 
        "LOT_NAME": "QDC", 
        "NB_NODE": 4, 
        "ID_RING": 10, 
        "RING_TYPE": "QDS", 
        "PAIR": 55, 
        "LOT_ID": 5
    }, 
    {
        "ID_NODE": 0, 
        "GigabitEthernet2/0/12": "10.255.200.231", 
        "LOT_NAME": "QDC", 
        "GigabitEthernet1/0/12": "10.255.200.220", 
        "NB_NODE": 6, 
        "ID_RING": 11, 
        "RING_TYPE": "QDS", 
        "PAIR": 57, 
        "LOT_ID": 5
    }, 
    {
        "ID_NODE": 0, 
        "GigabitEthernet2/0/13": "10.255.201.11", 
        "LOT_NAME": "QDC", 
        "GigabitEthernet1/0/13": "10.255.201.0", 
        "NB_NODE": 6, 
        "ID_RING": 12, 
        "RING_TYPE": "QDS", 
        "PAIR": 59, 
        "LOT_ID": 5
    }, 
    {
        "ID_NODE": 0, 
        "GigabitEthernet2/0/14": "10.255.201.31", 
        "LOT_NAME": "QDC", 
        "GigabitEthernet1/0/14": "10.255.201.20", 
        "NB_NODE": 6, 
        "ID_RING": 13, 
        "RING_TYPE": "QDS", 
        "PAIR": 73, 
        "LOT_ID": 5
    }, 
    {
        "ID_NODE": 0, 
        "GigabitEthernet2/0/15": "10.255.201.51", 
        "LOT_NAME": "QDC", 
        "GigabitEthernet1/0/15": "10.255.201.40", 
        "NB_NODE": 6, 
        "ID_RING": 14, 
        "RING_TYPE": "QDS", 
        "PAIR": 75, 
        "LOT_ID": 5
    }, 
    {
        "ID_NODE": 0, 
        "GigabitEthernet2/0/16": "10.255.198.89", 
        "LOT_NAME": "VIEUX", 
        "GigabitEthernet1/0/16": "10.255.198.80", 
        "NB_NODE": 5, 
        "ID_RING": 4, 
        "RING_TYPE": "VILLE", 
        "PAIR": 45, 
        "LOT_ID": 4
    }, 
    {
        "ID_NODE": 0, 
        "GigabitEthernet2/0/17": "10.255.198.107", 
        "LOT_NAME": "VIEUX", 
        "GigabitEthernet1/0/17": "10.255.198.100", 
        "NB_NODE": 4, 
        "ID_RING": 5, 
        "RING_TYPE": "VILLE", 
        "PAIR": 47, 
        "LOT_ID": 4
    }, 
    {
        "ID_NODE": 0, 
        "GigabitEthernet1/0/18": "10.255.198.60", 
        "GigabitEthernet2/0/18": "10.255.198.69", 
        "LOT_NAME": "VIEUX", 
        "NB_NODE": 5, 
        "ID_RING": 3, 
        "RING_TYPE": "VILLE", 
        "PAIR": 43, 
        "LOT_ID": 4
    }, 
    {
        "GigabitEthernet1/0/19": "10.255.198.40", 
        "ID_NODE": 0, 
        "LOT_NAME": "VIEUX", 
        "NB_NODE": 4, 
        "ID_RING": 2, 
        "RING_TYPE": "VILLE", 
        "GigabitEthernet2/0/19": "10.255.198.47", 
        "PAIR": 41, 
        "LOT_ID": 4
    }, 
    {
        "ID_NODE": 0, 
        "LOT_NAME": "VIEUX", 
        "GigabitEthernet1/0/20": "10.255.198.20", 
        "NB_NODE": 5, 
        "ID_RING": 1, 
        "RING_TYPE": "VILLE", 
        "GigabitEthernet2/0/20": "10.255.198.29", 
        "PAIR": 39, 
        "LOT_ID": 4
    }, 
    {
        "ID_NODE": 0, 
        "GigabitEthernet1/0/21": "10.255.198.0", 
        "LOT_NAME": "VIEUX", 
        "GigabitEthernet2/0/21": "10.255.198.9", 
        "NB_NODE": 5, 
        "ID_RING": 0, 
        "RING_TYPE": "VILLE", 
        "PAIR": 37, 
        "LOT_ID": 4
    }, 
    {
        "ID_NODE": 0, 
        "LOT_NAME": "VIEUX", 
        "NB_NODE": 5, 
        "GigabitEthernet1/0/22": "10.255.198.120", 
        "ID_RING": 6, 
        "RING_TYPE": "VILLE", 
        "PAIR": 49, 
        "LOT_ID": 4, 
        "GigabitEthernet2/0/22": "10.255.198.129"
    }, 
    {
        "ID_NODE": 0, 
        "GigabitEthernet1/0/23": "10.255.198.140", 
        "LOT_NAME": "VIEUX", 
        "NB_NODE": 5, 
        "ID_RING": 7, 
        "RING_TYPE": "VILLE", 
        "PAIR": 51, 
        "LOT_ID": 4, 
        "GigabitEthernet2/0/23": "10.255.198.149"
    }, 
    {
        "ID_NODE": 0, 
        "GigabitEthernet1/0/24": "10.255.201.60", 
        "LOT_NAME": "QDC", 
        "NB_NODE": 6, 
        "ID_RING": 15, 
        "RING_TYPE": "VILLE", 
        "PAIR": 39, 
        "LOT_ID": 5, 
        "GigabitEthernet2/0/24": "10.255.201.71"
    }
]