ID_MAP;LOT_ID;LOT_NAME;ID_RING;PAIR;RING_TYPE;ID_NODE;NB_NODE;ID_MAP_A;ID_MAP_B;PAF;INTERSECTION;RUES
5CA07;1;QDC;0;25;VILLE;0;6;5CI02;5PA02;;;
5PA02;2;QDC;0;25;VILLE;1;6;5CA07;5PA20;;;
5PA20;10;QDC;0;51;QDS;0;6;5PA02;5CA15;;;
5CA15;10;QDC;23;51;QDS;7;6;5PA20;5CA33;;;
5CA33;11;QDC;0;25;VILLE;0;6;5CA15;5CA29;;;
5CA29;11;QDC;23;25;VILLE;7;6;5CA33;5CI02;;;
5CA34;18;QDC;1;27;VILLE;0;7;5CI02;5PA04;;;
5PA04;20;QDC;0;27;VILLE;1;7;5CA34;5PA05;;;
5PA05;20;QDC;23;27;VILLE;7;8;5PA04;5PA03;;;