ID_MAP;LOT_ID;LOT_NAME;ID_RING;PAIR;RING_TYPE;ID_NODE;NB_NODE;ID_MAP_A;ID_MAP_B;PAF;INTERSECTION;RUES
LAB001;1;LAB;0;1;LAB;0;3;AGGR;LAB002;;;
LAB002;1;LAB;0;1;LAB;1;3;LAB001;LAB003;;;
LAB003;1;LAB;0;1;LAB;2;3;LAB002;AGGR;;;