ID_MAP;LOT_ID;LOT_NAME;ID_RING;PAIR;RING_TYPE;ID_NODE;NB_NODE;ID_MAP_A;ID_MAP_B
5CA07;5;QDC;0;25;VILLE;0;6;VIGER;5PA02
5PA02;5;QDC;0;25;VILLE;1;6;5CA07;5PA20
5PA20;5;QDC;0;25;VILLE;2;6;5PA02;5CA15
5CA15;5;QDC;0;25;VILLE;3;6;5PA20;5CA33
5CA33;5;QDC;0;25;VILLE;4;6;5CA15;5CA29
5CA29;5;QDC;0;25;VILLE;5;6;5CA33;VIGER
5PA03;5;QDC;1;27;VILLE;0;7;VIGER;5CA34
5CA34;5;QDC;1;27;VILLE;1;7;5PA03;5PA04
5PA04;5;QDC;1;27;VILLE;2;7;5CA34;5PA05
5PA05;5;QDC;1;27;VILLE;3;7;5PA04;5CA21
5CA21;5;QDC;1;27;VILLE;4;7;5PA05;5CA32
5CA32;5;QDC;1;27;VILLE;5;7;5CA21;5CA31
5CA31;5;QDC;1;27;VILLE;6;7;5CA32;VIGER
5PA06;5;QDC;2;29;VILLE;0;7;VIGER;5PA07
5PA07;5;QDC;2;29;VILLE;1;7;5PA06;5PA08
5PA08;5;QDC;2;29;VILLE;2;7;5PA07;5CA18
5CA18;5;QDC;2;29;VILLE;3;7;5PA08;5CA24
5CA24;5;QDC;2;29;VILLE;4;7;5CA18;5CA23
5CA23;5;QDC;2;29;VILLE;5;7;5CA24;5CA22
5CA22;5;QDC;2;29;VILLE;6;7;5CA23;VIGER
5PA09;5;QDC;3;31;VILLE;0;7;VIGER;5PA19
5PA19;5;QDC;3;31;VILLE;1;7;5PA09;5PA10
5PA10;5;QDC;3;31;VILLE;2;7;5PA19;5CA16
5CA16;5;QDC;3;31;VILLE;3;7;5PA10;5CA27
5CA27;5;QDC;3;31;VILLE;4;7;5CA16;5CA26
5CA26;5;QDC;3;31;VILLE;5;7;5CA27;5CA25
5CA25;5;QDC;3;31;VILLE;6;7;5CA26;VIGER
5CA20;5;QDC;4;33;VILLE;0;5;VIGER;5PA11
5PA11;5;QDC;4;33;VILLE;1;5;5CA20;5PA12
5PA12;5;QDC;4;33;VILLE;2;5;5PA11;5PA13
5PA13;5;QDC;4;33;VILLE;3;5;5PA12;5CA17
5CA17;5;QDC;4;33;VILLE;4;5;5PA13;VIGER
5PA14;5;QDC;5;35;VILLE;0;4;VIGER;5PA15
5PA15;5;QDC;5;35;VILLE;1;4;5PA14;5PA16
5PA16;5;QDC;5;35;VILLE;2;4;5PA15;5CA19
5CA19;5;QDC;5;35;VILLE;3;4;5PA16;VIGER
5PA17;5;QDC;6;37;VILLE;0;4;VIGER;5PA21
5PA21;5;QDC;6;37;VILLE;1;4;5PA17;5PA18
5PA18;5;QDC;6;37;VILLE;2;4;5PA21;5PA01
5PA01;5;QDC;6;37;VILLE;3;4;5PA18;VIGER
5SD17;5;QDC;7;49;QDS;0;6;VIGER;5SD11
5SD11;5;QDC;7;49;QDS;1;6;5SD17;5SD18
5SD18;5;QDC;7;49;QDS;2;6;5SD11;5SD12
5SD12;5;QDC;7;49;QDS;3;6;5SD18;5SD14
5SD14;5;QDC;7;49;QDS;4;6;5SD12;5SD15
5SD15;5;QDC;7;49;QDS;5;6;5SD14;VIGER
5SD20;5;QDC;8;51;QDS;0;6;VIGER;5SD19
5SD19;5;QDC;8;51;QDS;1;6;5SD20;5SA25
5SA25;5;QDC;8;51;QDS;2;6;5SD19;5SD01
5SD01;5;QDC;8;51;QDS;3;6;5SA25;5SD02
5SD02;5;QDC;8;51;QDS;4;6;5SD01;5SD03
5SD03;5;QDC;8;51;QDS;5;6;5SD02;VIGER
5SD04;5;QDC;9;53;QDS;0;4;VIGER;5SD05
5SD05;5;QDC;9;53;QDS;1;4;5SD04;5SD08
5SD08;5;QDC;9;53;QDS;2;4;5SD05;5SD10
5SD10;5;QDC;9;53;QDS;3;4;5SD08;VIGER
5SD16;5;QDC;10;55;QDS;0;4;VIGER;5SD06
5SD06;5;QDC;10;55;QDS;1;4;5SD16;5SD09
5SD09;5;QDC;10;55;QDS;2;4;5SD06;5SD07
5SD07;5;QDC;10;55;QDS;3;4;5SD09;VIGER
5SA20;5;QDC;11;57;QDS;0;6;VIGER;5SA14
5SA14;5;QDC;11;57;QDS;1;6;5SA20;5SA15
5SA15;5;QDC;11;57;QDS;2;6;5SA14;5SA16
5SA16;5;QDC;11;57;QDS;3;6;5SA15;5SA18
5SA18;5;QDC;11;57;QDS;4;6;5SA16;5SA19
5SA19;5;QDC;11;57;QDS;5;6;5SA18;VIGER
5SA07;5;QDC;12;59;QDS;0;6;VIGER;5SA08
5SA08;5;QDC;12;59;QDS;1;6;5SA07;5SA09
5SA09;5;QDC;12;59;QDS;2;6;5SA08;5SA12
5SA12;5;QDC;12;59;QDS;3;6;5SA09;5SA04
5SA04;5;QDC;12;59;QDS;4;6;5SA12;5SA13
5SA13;5;QDC;12;59;QDS;5;6;5SA04;VIGER
5SA23;5;QDC;13;73;QDS;0;6;VIGER;5SA10
5SA10;5;QDC;13;73;QDS;1;6;5SA23;5SA11
5SA11;5;QDC;13;73;QDS;2;6;5SA10;5SA05
5SA05;5;QDC;13;73;QDS;3;6;5SA11;5SA06
5SA06;5;QDC;13;73;QDS;4;6;5SA05;5SA17
5SA17;5;QDC;13;73;QDS;5;6;5SA06;VIGER
5SA21;5;QDC;14;75;QDS;0;6;VIGER;5SA22
5SA22;5;QDC;14;75;QDS;1;6;5SA21;5SA24
5SA24;5;QDC;14;75;QDS;2;6;5SA22;5SA02
5SA02;5;QDC;14;75;QDS;3;6;5SA24;5SA03
5SA03;5;QDC;14;75;QDS;4;6;5SA02;5SA01
5SA01;5;QDC;14;75;QDS;5;6;5SA03;VIGER
5JA01;5;QDC;15;39;VILLE;0;6;VIGER;5JA02
5JA02;5;QDC;15;39;VILLE;1;6;5JA01;5JA03
5JA03;5;QDC;15;39;VILLE;2;6;5JA02;5JA04
5JA04;5;QDC;15;39;VILLE;3;6;5JA03;5JA05
5JA06;5;QDC;15;39;VILLE;4;6;5JA04;5JA06
5JA05;5;QDC;15;39;VILLE;5;6;5JA05;VIGER
4VA30;4;VIEUX;0;37;VILLE;0;5;VIGER;4VA01
4VA01;4;VIEUX;0;37;VILLE;1;5;4VA30;4VA34
4VA34;4;VIEUX;0;37;VILLE;2;5;4VA01;4VA32
4VA32;4;VIEUX;0;37;VILLE;3;5;4VA34;4VA31
4VA31;4;VIEUX;0;37;VILLE;4;5;4VA32;VIGER
4VA26;4;VIEUX;1;39;VILLE;0;5;VIGER;4VA27
4VA27;4;VIEUX;1;39;VILLE;1;5;4VA26;4VA29
4VA29;4;VIEUX;1;39;VILLE;2;5;4VA27;4VA33
4VA33;4;VIEUX;1;39;VILLE;3;5;4VA29;4VA02
4VA02;4;VIEUX;1;39;VILLE;4;5;4VA33;VIGER
4VA19;4;VIEUX;2;41;VILLE;0;4;VIGER;4VA24
4VA24;4;VIEUX;2;41;VILLE;1;4;4VA19;5VA25
4VA25;4;VIEUX;2;41;VILLE;2;4;4VA24;4VA03
4VA03;4;VIEUX;2;41;VILLE;3;4;5VA25;VIGER
4VA21;4;VIEUX;3;43;VILLE;0;5;VIGER;4VA20
4VA20;4;VIEUX;3;43;VILLE;1;5;4VA21;4VA22
4VA22;4;VIEUX;3;43;VILLE;2;5;4VA20;4VA23
4VA23;4;VIEUX;3;43;VILLE;3;5;4VA22;4VA04
4VA04;4;VIEUX;3;43;VILLE;4;5;4VA23;VIGER
4VA35;4;VIEUX;4;45;VILLE;0;5;VIGER;4VA08
4VA08;4;VIEUX;4;45;VILLE;1;5;4VA35;4VA18
4VA18;4;VIEUX;4;45;VILLE;2;5;4VA08;4VA05
4VA05;4;VIEUX;4;45;VILLE;3;5;4VA18;VIGER
4VA28;4;VIEUX;5;47;VILLE;0;4;VIGER;4VA37
4VA37;4;VIEUX;5;47;VILLE;1;4;4VA28;4VA12
4VA12;4;VIEUX;5;47;VILLE;2;4;4VA37;4VA15
4VA15;4;VIEUX;5;47;VILLE;3;4;4VA12;VIGER
4VA06;4;VIEUX;6;49;VILLE;0;5;VIGER;4VA36
4VA36;4;VIEUX;6;49;VILLE;1;5;4VA06;4VA38
4VA38;4;VIEUX;6;49;VILLE;2;5;4VA36;4VA13
4VA13;4;VIEUX;6;49;VILLE;3;5;4VA38;4VA16
4VA16;4;VIEUX;6;49;VILLE;4;5;4VA13;VIGER
4VA07;4;VIEUX;7;51;VILLE;0;5;VIGER;4VA10
4VA10;4;VIEUX;7;51;VILLE;1;5;4VA07;4VA11
4VA11;4;VIEUX;7;51;VILLE;2;5;4VA10;4VA14
4VA14;4;VIEUX;7;51;VILLE;3;5;4VA11;4VA17
4VA17;4;VIEUX;7;51;VILLE;4;5;4VA14;VIGER