{
    "domain_sufix": "montrealnet.vdm.qc.ca", 
    "helper_server_1": "172.18.0.18", 
    "helper_server_2": "172.18.0.19",
    "localadmin_password": "375vivemontreal", 
    "ntp_server": "10.255.1.4", 
    "radius_key": "LbGZtOwqT@775k99+&>(", 
    "snmp_community": "QWERTY", 
    "snmp_server_1": "10.96.255.55", 
    "syslog_server_1": "10.96.255.60",
    "syslog_server_2": "10.96.35.140",
    "tacacs_server_1": "10.96.255.62", 
    "tacacs_server_2": "10.96.255.65", 
    "username": "admin", 
    "unused_port_vlan": 666,
    "vlan_AP": 3401
}

